<?xml version="1.0" encoding="UTF-8" standalone="no"?>
<svg
	xmlns="http://www.w3.org/2000/svg"
	version="1.1"
	width="40"
	height="40"
	viewBox="-4 -8 40 40">
	<style type="text/css"> <![CDATA[
		.bg{ fill:#ffffff; }
		.t{ fill:#000000; }
		
		.b227, .b111{ fill:#ffcd00;} /* Bouton d'or Ligne 1 */
		.{ fill:#003ca6;} /* Azur Ligne 2 */
		.b136, .b73{ fill:#6ec4e8;} /* Pervenche Ligne 3 */
		.b220{ fill:#cf009e;} /* Parme Ligne 4 */
		.b177, .b292{ fill:#ff7e2e;} /* Orange Ligne 5 */
		.b274{ fill:#fa9aba;} /* Rose Ligne 7 */
		.b43{ fill:#6eca97;} /* Menthe Ligne 7bis */
		.b182, .b163{ fill:#e19bdf;} /* Lilas Ligne 8 */
		.{ fill:#b6bd00; } /* Acacia Ligne 9 */
		.b282{ fill:#c9910d; } /* Ocre Ligne 10 */
		.b83, .b154{ fill:#704b1c; } /* Marron Ligne 11 */
		.b35, .b137{ fill:#007852; } /* Sapin Ligne 12 */
		.b28, .b172{ fill:#837902; } /* Olive Ligne 3 IRL / Ligne 13 IG */
		.b23, .b44{ fill:#62259d; } /* Iris Ligne 14 */
		.{ fill:#e2231a; } /* Coquelicot RER A */
		.b293{	fill:#3c91dc; } /* Cobalt RER B */
		.b195{	fill:#00ae41; } /* Prairie RER D */
	]]> </style>
	<rect x="4" y="0" width="24" height="24" rx="6" class="t" />
	<rect x="6" y="2" width="20" height="20" rx="4" class="bg" />
	<rect x="9" y="5" width="14" height="14" rx="3.5" class="b274" />
</svg>