<?xml version="1.0" encoding="UTF-8" standalone="no"?>
<!-- <?xml-stylesheet href="metro_plan.css" type="text/css"?> -->
<!-- Created with Inkscape (mais aussi et surtout avec des dizaines d'heures de Notepad++) -->

<svg
	xmlns="http://www.w3.org/2000/svg"
	xmlns:xlink="http://www.w3.org/1999/xlink"
	id="MetroMap"
	version="1.1"
	width="1024"
	height="1024"
	viewBox="0 0 1024 1024">
	<style>@import url(metro_plan.css);</style>
	
	<g id="calqueFond" class="mainLayer">
		<rect x="0" y="0" width="1024" height="1024" class="lightGreyBg" />
		
		<!--<path id="ForetCyseal" class="bgForet"
			d="M 25 900 L 75 850 H 180 L 330 1000 V 1024 H 25" />-->
		
		<path id="MerGrenat"	class="bgMer"
			d="M 85 370 L 110 345 H 325 L 350 370 H 370 L 400 400 L 400 480 V 540 L 460 600 H 590 L 620 630 V 700 L 590 730 H 420 L 380 770 H 290 L 250 810 V 840 L 210 880 H 150 L 110 840 V 775 L 90 755 H 50 L 30 775 V 1024 H 0 V 680 L 40 720 H 200 L 225 695 V 625 L 200 600 H 130 L 85 555" />
		<path id="MerEstTemp"	class="bgMer"
			d="M 880 560 L 920 520 H 1024 V 780 H 850 L 830 760 V 720 L 880 670" />
		<path id="MerNETemp"	class="bgMer"
			d="M 860 70 L 900 110 H 960 L 980 130 H 1024 V 0 H 950 L 920 30 H 880 L 860 50" />
		<path id="MerEtherium"	class="bgMer"
			d="M 200 180 L 225 155 H 490 L 515 180 V 300 L 490 325 H 375 L 335 285 H 305 L 295 295 V 330 L 315 350 H 230 L 250 330 V 283 L 232 265 H 225 L 200 240" />
		<!--<path id="RadeNiascar"	class="bgMer"
			d="M 294 314 L 335 355 H 370 L 380 365 V 385 L 370 395 H 305 L 294 406" />
			-->
		<path id="IleHameau"	class="lightGreyBg"
			d="M 245 200 L 260 185 H 320 L 335 170 H 355 L 370 185 H 465 L 475 195 V 210 L 465 220 H 415 L 405 230 V 260 L 425 280 H 450 L 460 290 V 305 L 450 315 V 330 H 410 V 320 L 350 260 H 305 L 295 250 V 240 L 285 230 H 260 L 245 215" />
		<path id="IleSinge"		class="lightGreyBg"
			d="M 520 660 H 560 L 570 670 V 700 L 560 710 H 520 L 510 700 V 670" />
		<path id="IleGrenat"	class="lightGreyBg"
			d="M 200 360 H 236 L 256 380 H 270 L 280 390 V 420 L 270 430 H 210 L 200 420 V 400 L 190 390 V 370" />
		<path id="IleArithmatie" class="lightGreyBg"
			d="M 130 370 H 165 L 175 380 V 405 L 160 420 H 130 L 120 430 H 105 V 415 L 120 400 V 380" />
		<path id="IleRecif"		class="lightGreyBg"
			d="M 320 405 L 335 390 H 360 L 370 400 V 420 L 360 430 H 340" />
		
		<path id="FleuveFortDuVal" class="bgFleuve"
			d="M 100 360 L 25 285 V 125 L -10 90" />
		<path id="FleuveNambek" class="bgFleuve"
			d="M 230 0 V 165" />
		<path id="FleuveBrimiel" class="bgFleuve"
			d="M 330 0 V 165" />
		<path id="FleuveTrismagus" class="bgFleuve"
			d="M 500 170 L 680 -10" />
		<path id="FleuveVillonne" class="bgFleuve"
			d="M 375 395 L 425 345" />
		<path id="FleuveBeothas" class="bgFleuve"
			d="M 400 600 L 530 470 V 440 L 516 426" />
		<path id="FleuveAulnoy" class="bgFleuve"
			d="M 370 770 V 890 L 400 920 H 470" />
		<path id="RiviereAulnoy" class="bgFleuve"
			d="M 370 865 H 430 L 470 905 V 915" />
		<path id="LacArgencon"	class="bgMer"
			d="M 460 930 V 910 L 463 907 H 480 L 488 915 H 495 L 500 920 V 930 L 495 935 H 465" />
		<path id="LacLitorea"	class="bgMer"
			d="M 720 500 L 750 470 H 780 L 820 430 H 840 L 860 450 V 470 L 840 490 V 510 L 820 530 H 760 L 750 520 H 740" />
	</g>
	<g id="calqueRERLignes" class="mainLayer">
		<path id="RERA1" class="RERATrace"
			d="M 390 245 V 285 L 265 410 H 105 L 65 450 V 895" />
		<path id="RERA2" class="RERATrace"
			d="M 390 285 L 420 315 V 520 L 465 565 H 605 L 645 605 V 790 L 615 820 H 325" />
	</g>
	<g id="calqueMetroLignes" class="mainLayer">
		<path id="MetroLigne8b" class="M8bTrace"
			d="M 645 860 H 885" />
		<path id="MetroLigne8" class="M8Trace"
			d="M 319 820 V 885 L 334 900 H 510 L 575 965 H 880 L 900 945 V 840 L 930 810 H 970" />
		<path id="MetroLigne7b" class="M7bTrace"
			d="M 870 295 V 500" />
		<path id="MetroLigne7" class="M7Trace"
			d="M 630 360 V 430 L 650 450 H 830 L 855 475 V 665 L 835 685 H 540" />
		<path id="MetroLigne6" class="M6Trace"
			d="M 80 140 H 840" />
		<path id="MetroLigne5a" class="M5aTrace"
			d="M 135 65 H 105 L 65 105 V 360 L 95 390 H 225" />
		<path id="MetroLigne5b" class="M5bTrace"
			d="M 630 125 V 95 L 660 65 H 825 L 855 95 V 320 L 830 345 H 435" />
		<path id="MetroLigne4" class="M4Trace"
			d="M 70 215 H 305 L 315 225 V 390 L 335 410 H 615" />
		<path id="MetroLigne3" class="M3Trace"
			d="M 150 65 H 185 L 215 95 V 180 L 235 200 H 310 L 330 220 V 325 L 350 345 H 405" />
		<path id="MetroLigne2" class="M2Trace"
			d="M 345 65 V 280 L 360 295 H 630" />
		<path id="MetroLigne1" class="M1Trace"
			d="M 230 390 V 280 L 235 275 H 355 L 360 270 V 215 L 375 200 H 615 L 630 185 V 155" />
	</g>
	<g id="calqueCableLignes" class="mainLayer">
		<path d="M 630 762 H 520"
			id="CableA1Trace"
			class="ligneCable CableATrace" />
		<path d="M 630 768 H 520"
			id="CableA2Trace"
			class="ligneCable CableATrace" />
		<path d="M 765 978 H 945"
			id="CableB1Trace"
			class="ligneCable CableBTrace" />
		<path d="M 765 984 H 945"
			id="CableB2Trace"
			class="ligneCable CableBTrace" />
	</g>
	<g 	id="calqueMetro" class="mainLayer">
		<image id="Fultez"			class="static" xlink:href="station/x_6.svg"		x="50"	y="125" width="45" height="30" />
		<image id="Pieuze"			class="static" xlink:href="station/x_4.svg"		x="50"	y="200" width="45" height="30" />
		<image id="FortDuVal"		class="static" xlink:href="station/5a.svg"		x="55"	y="295" width="20" height="20" />
		
		<image id="Chizan"			class="static" xlink:href="station/3_5a.svg"	x="125"	y="50" width="45" height="30"
				transform="rotate(180 147.5 65)" />
		<image id="Illysia"			class="static" xlink:href="station/4.svg"		x="160"	y="205" width="20" height="20" />
		<image id="Arithmatie"		class="static" xlink:href="station/5a.svg"		x="120"	y="380" width="20" height="20" />
		<image id="AsvaardRudelieu"	class="static" xlink:href="station/5a.svg"		x="184"	y="380" width="20" height="20" />
		
		<image id="Sablons"			class="static" xlink:href="station/x_x.svg"		x="200"	y="125" width="45" height="30" />
		<image id="GrenatVille"		class="static" xlink:href="station/1_5a_Xr.svg"	x="200"	y="375" width="66" height="30"
				transform="rotate(90 230 390)" />
		<image id="Krypt"			class="static" xlink:href="station/1.svg"		x="220"	y="290" width="20" height="20" />
		
		<image id="Verchamps"		class="static" xlink:href="station/x_x.svg"		x="240"	y="185" width="45" height="30"
				transform="rotate(-90 270 200)" />
				
		<image id="DesertOnyx"		class="static" xlink:href="station/t.svg"		x="335"	y="55" width="20" height="20" />
		<image id="AlwinOnyx"		class="static" xlink:href="station/x_x.svg"		x="315"	y="125" width="45" height="30" />
		<image id="HameauGBN"		class="static" xlink:href="station/2.svg"		x="335"	y="170" width="20" height="20" />
		<image id="HameauRDcS"		class="static" xlink:href="station/cS.svg"		x="360" y="240" width="30" height="9" />
		<image id="HameauRG"		class="static" xlink:href="station/x_x_x_x.svg"	x="300"	y="230" width="75" height="30" />
		<image id="ForetJeej"		class="static" xlink:href="station/x_x.svg"		x="300"	y="290" width="45" height="30" />
		<image id="GrenatRecif"		class="static" xlink:href="station/4.svg"		x="340"	y="400" width="20" height="20" />
		
		<image id="Knosos"			class="static" xlink:href="station/1.svg"		x="450"	y="190" width="20" height="20" />
		<image id="Kraken"			class="static" xlink:href="station/2.svg"		x="430"	y="285" width="20" height="20" />
		<image id="Villonne"		class="static" xlink:href="station/3_Xr_5b.svg"	x="387"	y="330" width="66" height="30" />
		
		<image id="Ygriak"			class="static" xlink:href="station/1.svg"		x="530"	y="190" width="20" height="20" />
		<image id="ZobunEclesta"	class="static" xlink:href="station/2.svg"		x="530"	y="285" width="20" height="20" />
		<image id="Duerrom"			class="static" xlink:href="station/4.svg"		x="530"	y="400" width="20" height="20" />
		<image id="IleDuSinge"		class="static" xlink:href="station/t.svg"		x="530"	y="675" width="20" height="20" />
		
		<image id="Dorlinor"		class="static" xlink:href="station/1_x_5b.svg"	x="600"	y="125" width="60" height="30" 
				transform="rotate(270 630 140)" />
		<image id="EvenisEclesta"	class="static" xlink:href="station/t.svg"		x="620"	y="285" width="20" height="20" />
		<image id="EvenisTamlyn"	class="static" xlink:href="station/x_7.svg"		x="615"	y="330" width="45" height="30" 
				transform="rotate(90 630 345)" />
		<image id="Tolbrok"			class="static" xlink:href="station/x_4.svg"		x="615"	y="395" width="45" height="30" 
				transform="rotate(180 629.5 410)" />
		<image id="Chassy"			class="static" xlink:href="station/Xr_x.svg"	x="630"	y="670" width="51" height="30" />
				
		<image id="DesertLaar"		class="static" xlink:href="station/5b.svg"		x="730"	y="55" width="20" height="20" />
		<image id="Athes"			class="static" xlink:href="station/6.svg"		x="730"	y="130" width="20" height="20" />
		<image id="Neronil"			class="static" xlink:href="station/7.svg"		x="730"	y="440" width="20" height="20" />
		
		<image id="RivesDeLaar"		class="static" xlink:href="station/5b.svg"		x="830"	y="70" width="20" height="20" />
		
		<image id="Mides"			class="static" xlink:href="station/x_6.svg"		x="825"	y="125" width="45" height="30" 
				transform="rotate(180 847.5 140)" />
		<image id="Hades"			class="static" xlink:href="station/5b.svg"		x="845"	y="220" width="20" height="20" />
		<image id="QuatreChemins"	class="static" xlink:href="station/x_7b.svg"	x="840"	y="280" width="45" height="30" />
		<image id="Eidin"			class="static" xlink:href="station/7b.svg"		x="860"	y="350" width="20" height="20" />
		<image id="Moronia"			class="static" xlink:href="station/7b.svg"		x="860"	y="430" width="20" height="20" />
		<image id="Litorea"			class="static" xlink:href="station/x_7b.svg"	x="840"	y="485" width="45" height="30" />
		<image id="ThoroirValdee"	class="static" xlink:href="station/7.svg"		x="845"	y="555" width="20" height="20" />
		<image id="Thalrion"		class="static" xlink:href="station/7.svg"		x="845"	y="630" width="20" height="20" />
		
		<image id="ProcyonTenebres"	class="static" xlink:href="station/8.svg"		x="309"	y="855" width="20" height="20" />
		<image id="Aulnoy"			class="static" xlink:href="station/8.svg"		x="390"	y="890" width="20" height="20" />
		<image id="Argencon"		class="static" xlink:href="station/8.svg"		x="480"	y="890" width="20" height="20" />
		<image id="Crestali"		class="static" xlink:href="station/8.svg"		x="550"	y="940" width="20" height="20" />
		<image id="BussyNigel"		class="static" xlink:href="station/8.svg"		x="640"	y="955" width="20" height="20" />
		<image id="Calmeflot"		class="static" xlink:href="station/x_cb.svg"	x="750"	y="950" width="45" height="30" 
				transform="rotate(90 765 965)" />
		<image id="Milloreau"		class="static" xlink:href="station/x_x.svg"		x="840"	y="950" width="45" height="30" 
				transform="rotate(90 855 965)" />
		<image id="FrambourgTernelieu" class="static" xlink:href="station/x_8b.svg"	x="885"	y="845" width="45" height="30" 
				transform="rotate(180 900 860)" />
				
		<image id="Quecol"			class="static" xlink:href="station/8b.svg"		x="800"	y="850" width="20" height="20" />
		<image id="MoldorBalchais"	class="static" xlink:href="station/8b.svg"		x="720"	y="850" width="20" height="20" />
		<image id="LeRelais"		class="static" xlink:href="station/t.svg"		x="635"	y="850" width="20" height="20" />
				
		<image id="Georlie"			class="static" xlink:href="station/t.svg"		x="955"	y="800" width="20" height="20" />
	</g>
	<g id="calqueRER" class="mainLayer">
		<image id="xxRERA1xA"		class="static" xlink:href="station/As.svg"		x="55"	y="490" width="20" height="20" />
		<image id="xxRERA1xB"		class="static" xlink:href="station/As.svg"		x="55"	y="575" width="20" height="20" />
		<image id="OreaSurMer"		class="static" xlink:href="station/As.svg"		x="55"	y="695" width="20" height="20" />
		<image id="Vernoglie"		class="static" xlink:href="station/As.svg"		x="55"	y="805" width="20" height="20" />
		<image id="Cyseal"			class="static" xlink:href="station/tA.svg"		x="55"	y="885" width="20" height="20" />
		
		<image id="HameauRD"		class="static" xlink:href="station/xs.svg"		x="380"	y="235" width="42" height="20" />
		<image id="HameauRDc"		class="static" xlink:href="station/c.svg"		x="360" y="240" width="30" height="9" />
		<image id="Procyon"			class="static" xlink:href="station/A_8.svg"		x="300"	y="800" width="60" height="45" 
				transform="rotate(180 330 821.5)" />
		
		<image id="Beothas"			class="static" xlink:href="station/As.svg"		x="410"	y="480" width="20" height="20" />
		
		<image id="Shikan"			class="static" xlink:href="station/As.svg"		x="575"	y="555" width="20" height="20" />
		<image id="EvrocqSauvebonne" class="static" xlink:href="station/Xr_ca.svg"	x="630"	y="750" width="54" height="30" 
				transform="rotate(180 646 765)" />
	</g>
	<g id="calqueCable" class="mainLayer">
		<image id="EvrocqLeBas"		class="static" xlink:href="station/ca.svg"		x="570"	y="755" width="20" height="20" />
		<image id="EvrocqLeHaut"	class="static" xlink:href="station/tca.svg"		x="505"	y="750" width="30" height="30" />
		
		<image id="LesPics"			class="static" xlink:href="station/cb.svg"		x="815"	y="971" width="20" height="20" />
		<image id="LaDodene"		class="static" xlink:href="station/tcb.svg"		x="930"	y="966" width="30" height="30" />
	</g>
	<g id="calqueNomStation" class="mainLayer">
				<!-- Land	 song/chant		fire -->
				<!-- Dôr	 linn			nor -->
		<text id="NomDorlinor"		class="texteTerminus nain" x="615" y="127" text-anchor="end">9M@al,b@</text>
				<!-- Wrong-thing(+pluriel)	narrow -->
				<!-- Dýgar(+i)				arca -->
				<!-- Raccourci en "Ýgariarca" -->
		<text id="NomYgriak"		class="texteMetro nain" x="550" y="184" text-anchor="middle">"R>@;c@e</text>
				<!-- Cánosos -->
		<text id="NomKnosos"		class="texteMetro nain" x="470" y="184" text-anchor="middle">e>,b.b.</text>
				<!-- Smallness+House(+) -->
				<!-- (-A)mam(-ul)+ZaHaR -->
		<text id="NomLeHameau"		class="texteTerminus nain" x="406" y="249">6c6Dcfc@</text>
				<!-- Montagnes-de	Krypt -->
				<!-- 'abbud			K'rîbto -->
		<text id="NomKrypt1"		class="texteMetro nain" x="218" y="299" text-anchor="end">gc22S9</text>
		<text id="NomKrypt2"		class="texteMetro nain" x="218" y="316" text-anchor="end">e>@"28b</text>
				<!-- Grenat		– House(+4) -->
				<!-- Kâr'nya	– ZuHRu -->
		<text id="NomGrenat1"		class="texteTerminus nain" x="229" y="442" text-anchor="middle">ev@>,;c</text>
		<text id="NomGrenat2"		class="texteTerminus nain" x="229" y="461" text-anchor="middle">DSf@S</text>
	
				<!-- Desert-of	Onyx -->
				<!-- ShuKLû		Onix -->
		<text id="NomDesertOnyx"	class="texteTerminus nain" x="363" y="43">%SeaGIb,"w></text>
				<!-- Alwin Onyx -->
				<!-- Al'win Onix -->
		<text id="NomAlwinOnyx1"	class="texteMetro nain" x="357" y="115">vagFl,</text>
		<text id="NomAlwinOnyx2"	class="texteMetro nain" x="357" y="130">b,"w></text>
				<!-- Hameau			Northern Idle+Flow -->
				<!-- mamZaHaR	FuHuM	 LuTuR+'âL -->
		<text id="NomHameauGbrn1"	class="texteMini nain" x="357" y="170">6c6Dcfc@</text>
		<text id="NomHameauGbrn2"	class="texteMini nain" x="357" y="181">3SfS6</text>
		<text id="NomHameauGbrn3"	class="texteMini nain" x="357" y="192">aS8S@gva</text>
		
		<text id="NomKraken"		class="texteMetro nain" x="447" y="280" text-anchor="middle">ev@cez,</text>
		
		<text id="NomZobunEclesta1"	class="texteMetro nain" x="543" y="262" text-anchor="middle">DM2?,</text>
		<text id="NomZobunEclesta2"	class="texteMetro nain" x="540" y="280" text-anchor="middle">xRga>.8c</text>
		
		<text id="NomEvenisEclesta1" class="texteTerminus nain" x="677" y="290">xFc,l.</text>
		<text id="NomEvenisEclesta2" class="texteTerminus nain" x="677" y="310">xRga>.8c</text>
		
		
		<text id="NomChizan"		class="texteTerminus nain" x="174" y="44">%"D>,</text>
				<!-- Sand(+8)+House(+4) -->
				<!-- ShaKâL+ZuHRu -->
		<text id="NomSablons1"		class="texteMetro nain" x="224" y="110">%cevaI</text>
		<text id="NomSablons2"		class="texteMetro nain" x="224" y="126">DSf@S</text>
				<!-- Green(pl)+Field(pl) -->
				<!-- DaNKhâ+(-danakhkha)lfzudûn -->
		<text id="NomVerchamps"		class="textePetit nain" x="272" y="182" text-anchor="middle">9c,tva3DS9G,</text>
				<!-- forest			Jeej+of -->
				<!-- ZaRSTh[uHRu]	HêYeH+ul -->
		<text id="NomJeej1"			class="textePetit nain" x="300" y="303" text-anchor="end">Dc@.0P<!-- Sf@S --></text>
		<text id="NomJeej2"			class="textePetit nain" x="300" y="318" text-anchor="end">fx;zfSa</text>
				<!-- WiLoNN' -->
		<text id="NomVillonne"		class="texteTerminus nain" x="458" y="375">FlaMug</text>
		
				<!-- Religion+believing	in	Sulûm -->
				<!-- Lugnr(-azm)+irzêm	ni	Julûm -->
		<text id="NomPieuze1"		class="texteTerminusPetit nain" x="74" y="241">aSR,@l@Dx6</text>
		<text id="NomPieuze2"		class="texteTerminusPetit nain" x="74" y="258">,lI$SaG6</text>
				<!-- Il-lîzya -->
		<text id="NomIllysia"		class="texteMetro nain" x="171" y="200" text-anchor="middle">laIa"D;c</text>
				<!-- Grenat		– Sharp+Shore -->
				<!-- Kâr'nya	– Zirik+shâkal -->
		<text id="NomGrenatRecif1"	class="texteMetro nain" x="350" y="434" text-anchor="middle">ev@>,;c</text>
		<text id="NomGrenatRecif2"	class="texteMetro nain" x="350" y="450" text-anchor="middle">Dl@le%veca</text>
				<!-- Anvil+back(+4) -->
				<!-- DûHeR+(')+RuM -->
		<text id="NomDuerrom"		class="texteMetro nain" x="540" y="434" text-anchor="middle">9Gfz@g@S6</text>
				<!-- Smith(+4)+axe(+10) -->
				<!-- TuLKh(-u)(+')+(-a)BRâK -->
		<text id="NomTolbrok"		class="texteTerminus nain" x="650" y="415">8Satg2@ve</text>
		
				<!-- Fultèz		in	Sulûm -->
				<!-- F'LThèX	ni	Julûm -->
		<text id="NomFultez1"		class="texteTerminusPetit nain" x="102" y="112">3>a0xw</text>
		<text id="NomFultez2"		class="texteTerminusPetit nain" x="102" y="129">,lI$SaG6</text>
				<!-- Fortress-of	Valley-place -->
				<!-- GaThoLu		Dibnîn -->
		<text id="NomFortDuVal1"	class="texteMetro nain" x="77" y="302">Rc0baS</text>
		<text id="NomFortDuVal2"	class="texteMetro nain" x="77" y="317">9l2,",</text>
				<!-- Grenat		– Artásmassë -->
				<!-- Kâr'nya	– aRTâS'MaSe -->
		<text id="NomArithmatie1"	class="texteMini nain" x="130" y="364" text-anchor="middle">ev@>,;c</text>
		<text id="NomArithmatie2"	class="texteMini nain" x="130" y="375" text-anchor="middle">c@8v.g6c.z</text>
				<!-- Aswárdë , Hard(+place) -->
				<!-- aSWâRD' – K(+i)Sh(+a)Kh(+în) -->
		<text id="NomAsvaardRudelieu1"	class="texteMini nain" x="192" y="364" text-anchor="middle">c.Fv@9g</text>
		<text id="NomAsvaardRudelieu2"	class="texteMini nain" x="192" y="375" text-anchor="middle">el%ct",</text>
		
				<!-- êWaNiS TaMLiN -->
		<text id="NomEvenisTamlyn" class="texteTerminus nain" x="647" y="370">xFc,l.–8c6al,</text>
				<!-- Four	Paths -->
				<!-- RaMeKh	Nulâ -->
		<text id="NomQuatreChemins"	class="texteTerminusPetit nain" x="920" y="300">@c6ztI,Sav</text>
				<!-- Desert-of	Laar -->
				<!-- ShuKLû		Lâ'ar -->
		<text id="NomDesertLaar"	class="texteMetro nain" x="740" y="48" text-anchor="middle">%SeaGIavgc@</text>
				<!-- âTheS -->
		<text id="NomAthes"			class="texteMetro nain" x="721" y="165">v0z.</text>
				<!-- Shores-of	Laar -->
				<!-- ShaKuL		Lâ'ar -->
		<text id="NomRivesDeLaar"	class="texteMetro nain" x="852" y="75">%ceSaIavgc@</text>
				<!-- MiDeS -->
		<text id="NomMides"			class="texteTerminus nain" x="906" y="145">6l9z.</text>
				<!-- aDeS -->
		<text id="NomHades"			class="texteMetro nain" x="870" y="235">v9z.</text>
		
				<!-- Néronil containing-bridge -->
				<!-- NêR'NiL KhaRuR -->
		<text id="NomNeronil"		class="texteMetro nain" x="740" y="476" text-anchor="middle">,x@>,laItc@S@</text>
				<!-- LîToRa -->
		<text id="NomLitorea"		class="texteTerminus nain" x="920" y="505">a"8b@c</text>
				<!-- ThoRiR – WaLDê -->
		<text id="NomThoroirValdee"	class="texteMetro nain" x="869" y="570">0b@l@–Fca9x</text>
				<!-- ThâLRiYoN -->
		<text id="NomThalrion"		class="texteMetro nain" x="869" y="645">0va@l;b,</text>
				<!-- Farasi	on	Between+Seas -->
				<!-- Fârsi	aya	Niktunul+'azâh -->
		<text id="NomChassy1"		class="texteMetro nain" x="660" y="654">3v@.lIc;c</text>
		<text id="NomChassy2"		class="texteMetro nain" x="660" y="670">,le8S,SagcDvf</text>
				<!-- Island-of	Man-like+monster -->
				<!-- Guzyû		'utn-ul+guzg -->
		<text id="NomIleDuSinge1"	class="texteTerminus nain" x="496" y="680" text-anchor="end">RSD;G</text>
		<text id="NomIleDuSinge2"	class="texteTerminus nain" x="496" y="698" text-anchor="end">gS8,SaRSDR</text>
		
				<!-- Eidin	in	Valley -->
				<!-- Ayadîn	ni	Duban -->
		<text id="NomEidin"			class="texteMetro nain" x="886" y="365">c;c9l,I,lI9S2c,</text>
				<!-- Môr'nya -->
		<text id="NomMoronia"		class="texteMetro nain" x="886" y="445">6M@,;c</text>
		
				<!-- Borsyun -->
		<text id="NomProcyon"		class="texteTerminus nain" x="326" y="798" text-anchor="middle">2b@.;S,</text>
				<!-- Procyon	– Darkness-place -->
				<!-- Borsyun	, Zinnîn -->
		<text id="NomTenebres1"		class="texteMetro nain" x="306" y="861" text-anchor="end">2b@.;S,</text>
		<text id="NomTenebres2"		class="texteMetro nain" x="306" y="879" text-anchor="end">Dlu",</text>
				<!-- Ûlw'nor -->
		<text id="NomAulnoy"		class="texteMetro nain" x="400" y="884" text-anchor="middle">GaF>,b@</text>
				<!-- Silver-place+town(men) -->
				<!-- Kibl'(-în)+itnîn -->
		<text id="NomArgencon"		class="texteMetro nain" x="490" y="884" text-anchor="middle">el2agl8,",</text>
				<!-- Crystal-like+town(men) -->
				<!-- Belbul+itnîn -->
		<text id="NomCrestali"		class="textePetit nain" x="570" y="940" text-anchor="begin">2za2Sal8,",</text>
				<!-- Busi Nîjel -->
		<text id="NomBussyNigel"	class="texteMetro nain" x="650" y="990" text-anchor="middle">2S.lI,"$za</text>
				<!-- Peace+Flow	on+both	shore(+3)(+pl) -->
				<!-- Akhul+'âl	ai+nu'	ShaKâL -->
		<text id="NomCalmeflot1"	class="texteTerminusPetit nain" x="765" y="911" text-anchor="middle">ctSagva</text>
		<text id="NomCalmeflot2"	class="texteTerminusPetit nain" x="765" y="929" text-anchor="middle">cl,Sg</text>
		<text id="NomCalmeflot3"	class="texteTerminusPetit nain" x="765" y="947" text-anchor="middle">%ceva</text>
				<!-- Thousand+coin	under	high+ice -->
				<!-- Libokh+zizî	undu	zudrâ+BuLBu -->
		<text id="NomMilloreau1"	class="textePetit nain" x="854" y="919" text-anchor="middle">al2btDlD"</text>
		<text id="NomMilloreau2"	class="textePetit nain" x="854" y="933" text-anchor="middle">SdS</text>
		<text id="NomMilloreau3"	class="textePetit nain" x="854" y="947" text-anchor="middle">DS9@v2Sa2S</text>
				<!-- Fimbiobar	, Gloomy+place -->
				<!-- Fimbyobar	, Durthul+în -->
		<text id="NomFrambourgTernelieu1" class="texteTerminus nain" x="913" y="854">3l62;b2c@</text>
		<text id="NomFrambourgTernelieu2" class="texteTerminus nain" x="916" y="873">9S@0Sa",</text>
				<!-- Géorlie -->
				<!-- Yor'li -->
		<text id="NomGeorlie"		class="texteTerminus nain" x="965" y="792" text-anchor="middle">;b@gal</text>
		
				<!-- The pause(+8) -->
				<!-- Id-DaKhaT -->
		<text id="NomLeRelais"		class="texteTerminus nain" x="640" y="888" text-anchor="middle">l9g9ctc8</text>
				<!-- Môldor Bâlkas -->
		<text id="NomMoldorBalchais1" class="texteMetro nain" x="730" y="830" text-anchor="middle">6Ma9b@</text>
		<text id="NomMoldorBalchais2" class="texteMetro nain" x="730" y="846" text-anchor="middle">2vaec.</text>
				<!-- OreVein(+4)+Stream(+4)	in	Drie -->
				<!-- KuK+'uL				ni	DuHîR -->
		<text id="NomQuecol1"		class="texteMetro nain" x="810" y="830" text-anchor="middle">eSegSa</text>
		<text id="NomQuecol2"		class="texteMetro nain" x="810" y="846" text-anchor="middle">,lI9Sf"@</text>
		
				<!-- Not+existence-of	stop 1 -->
				<!-- Bin+kustû			dirbîn 1 -->
		<text id="NomXXRERA1xA"		class="texteMetro nain italic" x="85" y="505">2l,eS.8GI9l@2",Il\</text>
		<text id="NomXXRERA1xB"		class="texteMetro nain italic" x="85" y="590">2l,eS.8GI9l@2",Ib\</text>
				<!-- Orea	behind+sea -->
				<!-- Ôrya	ôra+'âzah -->
		<text id="NomOreaSurMer"	class="texteMetro nain" x="85" y="710">M@;cIM@cgvDcf</text>
				<!-- Verneuil	the	mines -->
				<!-- Fernyû		id-athuk	 -->
		<text id="NomVernoglie"		class="texteMetro nain" x="85" y="820">3z@,;GIl9gc0Se</text>
				<!-- Sizyâl -->
		<text id="NomCyseal"		class="texteTerminus nain" x="111" y="901">.lD;va</text>
		
				<!-- Bûthas -->
		<text id="NomBeothas"		class="texteMetro nain" x="436" y="495">2G0c.</text>
				<!-- Shikân -->
		<text id="NomShikan"		class="texteMetro nain" x="586" y="550" text-anchor="middle">%lev,</text>
				<!-- Evrocq - Saviour-of+good -->
				<!-- Orw'rk - Ansasu+galkh -->
		<text id="NomEvrocqGare1"	class="texteTerminus nain" x="664" y="760">b@F?@e</text>
		<text id="NomEvrocqGare2"	class="texteTerminus nain" x="664" y="778">c,.c.SRcat</text>
		
				<!-- Evrocq - The Low -->
				<!-- Orw'rk - Ib-bazir -->
		<text id="NomEvrocqLeBas1"	class="textePetit nain" x="580" y="738" text-anchor="middle">b@F?@e</text>
		<text id="NomEvrocqLeBas2"	class="textePetit nain" x="580" y="752" text-anchor="middle">l2I2cDl@</text>
				<!-- Evrocq - The High -->
				<!-- Orw'rk - Id-zudrâ -->
		<text id="NomEvrocqLeHaut1"	class="texteTerminusPetit nain" x="525" y="735" text-anchor="end">b@F?@e</text>
		<text id="NomEvrocqLeHaut2"	class="texteTerminusPetit nain" x="525" y="749" text-anchor="end">l9IDS9@v</text>
		
				<!-- high+ice -->
				<!-- zudrâ+BuLBu -->
		<text id="NomLesPics"		class="texteMini nain" x="825" y="1001" text-anchor="middle">DS9@vI</text>
		<text id="NomLesPics"		class="texteMini nain" x="825" y="1012" text-anchor="middle">2Sa2S</text>
				<!-- Id-dud'n -->
		<text id="NomLaDodene"		class="texteTerminusPetit nain" x="945" y="1008" text-anchor="middle">l9I9S9>,</text>
		
	</g>
	<g id="calqueLogos" class="mainLayer">
		<image id="M1Dorlinor"			class="static" xlink:href="logo/1.svg"		x="643"	y="147" height="24" width="24" />
		<image id="M1Grenat"			class="static" xlink:href="logo/1.svg"		x="243"	y="352" height="24" width="24" />
		
		<image id="M2DesertOnyx"		class="static" xlink:href="logo/2.svg"		x="333"	y="25" height="24" width="24" />
		<image id="M2EvenisEclesta"		class="static" xlink:href="logo/2.svg"		x="645"	y="282" height="24" width="24" />
		
		<image id="M3Chizan"			class="static" xlink:href="logo/3.svg"		x="145"	y="26" height="24" width="24" />
		<image id="M3Villonne"			class="static" xlink:href="logo/3.svg"		x="388"	y="357" height="24" width="24" />
		
		<image id="M4Tolbrok"			class="static" xlink:href="logo/4.svg"		x="599"	y="422" height="24" width="24" />
		<image id="M4Pieuze"			class="static" xlink:href="logo/4.svg"		x="72"	y="180" height="24" width="24" />
		
		<image id="M5aGrenat"			class="static" xlink:href="logo/5a.svg"		x="243"	y="378" height="24" width="24" />
		<image id="M5aChizan"			class="static" xlink:href="logo/5a.svg"		x="118"	y="26" height="24" width="24" />
		<image id="M5bVillonne"			class="static" xlink:href="logo/5b.svg"		x="428"	y="357" height="24" width="24" />
		<image id="M5bDorlinor"			class="static" xlink:href="logo/5b.svg"		x="643"	y="109" height="24" width="24" />
		
		<image id="M6Fultez"			class="static" xlink:href="logo/6.svg"		x="72"	y="104" height="24" width="24" />
		<image id="M6Mides"				class="static" xlink:href="logo/6.svg"		x="875"	y="127" height="24" width="24" />
		
		<image id="M7EvenisTamlyn"		class="static" xlink:href="logo/7.svg"		x="593"	y="352" height="24" width="24" />
		<image id="M7IleDuSinge"		class="static" xlink:href="logo/7.svg"		x="502"	y="673" height="24" width="24" />
		
		<image id="M7bQuatreChemins"	class="static" xlink:href="logo/7b.svg"		x="890"	y="282" height="24" width="24" />
		<image id="M7bLitorea"			class="static" xlink:href="logo/7b.svg"		x="890"	y="487" height="24" width="24" />
		
		<image id="M8Procyon"			class="static" xlink:href="logo/8.svg"		x="280"	y="808" height="24" width="24" />
		<image id="M8Georlie"			class="static" xlink:href="logo/8.svg"		x="978"	y="798" height="24" width="24" />
		
		<image id="M8bLeRelais"			class="static" xlink:href="logo/8b.svg"		x="608"	y="847" height="24" width="24" />
		<image id="M8bFrambourgTernelieu" class="static" xlink:href="logo/8b.svg"	x="869"	y="873" height="24" width="24" />
		
		<image id="RERACyseal"			class="static" xlink:href="logo/rera.svg"	x="81"	y="884" height="24" width="24" />
		<image id="RERAProcyon"			class="static" xlink:href="logo/rera.svg"	x="347"	y="835" height="24" width="24" />
		
		<image id="CLogoEvrocqLeHaut"	class="static" xlink:href="logo/cable.svg"	x="457"	y="754" height="24" width="24" />
		<image id="CAEvrocqLeHaut"		class="static" xlink:href="logo/ca.svg"		x="482"	y="754" height="24" width="24" />
		
		<image id="CLogoLaDodene"		class="static" xlink:href="logo/cable.svg"	x="960"	y="968" height="24" width="24" />
		<image id="CBLaDodene"			class="static" xlink:href="logo/cb.svg"		x="985"	y="968" height="24" width="24" />
	</g>
	<g id="calqueLegende" class="mainLayer">
		<rect x="1" y="1" width="1022" height="1022" class="bordure" />
		<rect x="-10" y="930" width="495" height="100" class="legendeBg" />
		<rect x="405" y="931" width="80" height="100" class="tchBg" />
		<rect x="-10" y="930" width="495" height="100" class="bordure" />
		
		<image id="LegLogoTCH_Texte"	class="static" xlink:href="logo/tch_texte_b.svg"	x="401" y="937" width="88" height="28.875" />
		<image id="LegLogoTCH_Logo"		class="static" xlink:href="logo/tch_logo_b.svg"		x="415.4375" y="965.125" width="59.125" height="59.125" />
		
		<image id="LegLogoMetro"	class="static" xlink:href="logo/m.svg"		x="368" y="935" height="28" width="28" />
		<image id="LegLogoRER"		class="static" xlink:href="logo/rer.svg"	x="368" y="965" height="28" width="28" />
		<image id="LegLogoCable"	class="static" xlink:href="logo/cable.svg"	x="368" y="995" height="28" width="28" />
		
				<!-- Map(+10)-of	net(+4)+move(+4) -->
				<!-- aTSâRu			NuT(-Jû)+ShuFTu -->
		<text id="Titre" class="texteTitre nain" x="356" y="977" text-anchor="end">c8.v@S</text>
		<text id="Titre" class="texteTitreMoyen nain" x="356" y="1013" text-anchor="end">,S8%S38S</text>
		
				<!-- Words+Help -->
				<!-- galab(-î)+aHaS -->
		<text id="LegTitle" class="texteTitrePetit nain" x="11" y="951">Rcac2cfc.</text>
		
		<path id="LegLiaisonUrbaine" class="liaisonUrbaine"
			d="M 120 1006 V 965" />
			<!-- Link	by	roads -->
			<!-- zazzô	mi	tharâkh -->
		<text id="LegLiaisonUrbaineText" class="texteLegende nain" x="110" y="990" text-anchor="end">DcDDMI6lI0c@vt</text>
			
		<image id="LegCorrespCs"	class="static" xlink:href="station/cS.svg"	x="126" y="962" width="20" height="6" />
		<image id="LegCorresp1"		class="static" xlink:href="station/xs.svg"	x="115" y="955" width="42" height="20" />
		<image id="LegCorresp2"		class="static" xlink:href="station/xs.svg"	x="137" y="955" width="42" height="20" />
		<image id="LegCorrespC"		class="static" xlink:href="station/c.svg"	x="126" y="962" width="20" height="6" />
			<!-- Connection-of	stations -->
			<!-- akharu			atanâr -->
		<text id="LegCorrespText" class="texteLegende nain" x="110" y="970" text-anchor="end">ctc@SIc8c,v@</text>
		
		<path id="LegTermCLine" class="LigneMetro M7bTrace"
			d="M 143 1007 H 165 L 175 1017 V 1024" />
		<image id="LegTermC"		class="static" xlink:href="station/x_7b.svg"	x="114" y="992" width="45" height="30" />
			<!-- Term-of	track	also	connection-of	lines -->
			<!-- Durnû		nailu	ya		akharu			zadâkh -->
		<text id="LegTermCText1" class="texteLegende nain" x="110" y="1007" text-anchor="end">9S@,GI,claS</text>
		<text id="LegTermCText1" class="texteLegende nain" x="110" y="1019" text-anchor="end">;cIctc@SIDc9vt</text>
	</g>
</svg>
