<?xml version="1.0" encoding="iso-8859-1"?>
<!-- Generator: Adobe Illustrator 14.0.0, SVG Export Plug-In . SVG Version: 6.00 Build 43363)  -->
<!DOCTYPE svg PUBLIC "-//W3C//DTD SVG 1.1//EN" "http://www.w3.org/Graphics/SVG/1.1/DTD/svg11.dtd">
<svg version="1.1" id="Premier_plan" xmlns="http://www.w3.org/2000/svg" xmlns:xlink="http://www.w3.org/1999/xlink" x="0px"
	 y="0px" width="92px" height="92px" viewBox="0 0 92 92" style="enable-background:new 0 0 92 92;" xml:space="preserve">
<g>
	<g>
		<circle style="fill-rule:evenodd;clip-rule:evenodd;fill:#62259d;" cx="46" cy="46" r="46"/>
		<path style="fill-rule:evenodd;clip-rule:evenodd;fill:#FFFFFF;" d="M79.691,61.075V53.16h-6.26V20.854H60.48L40.766,51.649v9.426
			h22.881v10.577h9.785V61.075H79.691z M63.646,53.16H49.473l10.361-16.261c2.014-3.166,3.453-6.26,3.668-7.124h0.145V53.16z"/>
		<path style="fill-rule:evenodd;clip-rule:evenodd;fill:#FFFFFF;" d="M35.195,71.652V20.854h-8.851
			c-2.302,1.799-7.771,5.181-13.671,7.987L9.58,30.279l3.454,7.771l2.662-1.367c1.871-0.936,6.979-3.598,8.707-4.965v39.934H35.195z
			"/>
	</g>
</g>
</svg>
