<?xml version="1.0" encoding="iso-8859-1"?>
<svg version="1.1"
	id="Logos"
	xmlns="http://www.w3.org/2000/svg"
	xmlns:xlink="http://www.w3.org/1999/xlink"
	width="1792"
	height="1280"
	viewBox="0 0 1792 1280">
	<image id="m" xlink:href="m.svg" x="0" y="0" width="256" height="256" />
	<image id="m_transp" xlink:href="m_transp.svg" x="256" y="0" width="256" height="256" />
	<image id="1" xlink:href="1.svg" x="512" y="0" width="256" height="256" />
	<image id="2" xlink:href="2.svg" x="768" y="0" width="256" height="256" />
	<image id="3" xlink:href="3.svg" x="1024" y="0" width="256" height="256" />
	<image id="4" xlink:href="4.svg" x="1280" y="0" width="256" height="256" />
	<image id="5a" xlink:href="5a.svg" x="1536" y="0" width="256" height="256" />
	<image id="5b" xlink:href="5b.svg" x="0" y="256" width="256" height="256" />
	<image id="6" xlink:href="6.svg" x="256" y="256" width="256" height="256" />
	<image id="7" xlink:href="7.svg" x="512" y="256" width="256" height="256" />
	<image id="7b" xlink:href="7b.svg" x="768" y="256" width="256" height="256" />
	<image id="8" xlink:href="8.svg" x="1024" y="256" width="256" height="256" />
	<image id="8b" xlink:href="8b.svg" x="1280" y="256" width="256" height="256" />
	<image id="9" xlink:href="9.svg" x="1536" y="256" width="256" height="256" />
	<image id="10" xlink:href="10.svg" x="0" y="512" width="256" height="256" />
	<image id="11" xlink:href="11.svg" x="256" y="512" width="256" height="256" />
	<image id="12" xlink:href="12.svg" x="512" y="512" width="256" height="256" />
	<image id="13" xlink:href="13.svg" x="768" y="512" width="256" height="256" />
	<image id="14" xlink:href="14.svg" x="1024" y="512" width="256" height="256" />
	<image id="rer" xlink:href="rer.svg" x="0" y="768" width="256" height="256" />
	<image id="rer_transp" xlink:href="rer_transp.svg" x="256" y="768" width="256" height="256" />
	<image id="rera" xlink:href="rera.svg" x="512" y="768" width="256" height="256" />
	<image id="rerb" xlink:href="rerb.svg" x="768" y="768" width="256" height="256" />
	<image id="cable" xlink:href="cable.svg" x="0" y="1024" width="256" height="256" />
	<image id="ca" xlink:href="ca.svg" x="256" y="1024" width="256" height="256" />
	<image id="cb" xlink:href="cb.svg" x="512" y="1024" width="256" height="256" />
</svg>
