<?xml version="1.0" encoding="UTF-8" standalone="no"?>
<svg
	xmlns="http://www.w3.org/2000/svg"
	version="1.1"
	width="128"
	height="128"
	id="IconeAscenseur"
	viewBox="0 0 128 128">
	<style type="text/css"><![CDATA[
		.logo,.stroke{
			fill: #ffffff;
			stroke: #ffffff;
		}
		.logo{
			fill-opacity: 1;
			stroke-opacity: 0;
		}
		.stroke{
			fill-opacity:0;
			stroke-opacity:1;
		}
		.logoRect{ stroke-opacity:1; stroke-width: 3; }
		.persoBras{ stroke-width: 5; }
		.logoSide{ stroke-width: 12; }
		.black{ fill:#000000; }
		.bg{
			fill:#050d9e;
			fill-opacity: 1;
		}
	]]></style>
	<rect y="8.5" x="8.5" height="111"	width="111" class="logoRect logo bg" />
	<rect y="41.5" x="33.5" height="67"		width="61"	class="logoRect logo bg" />
	<line x1="23" y1="14" x2="23" y2="114" class="logoSide stroke" />
	<line x1="105" y1="14" x2="105" y2="114" class="logoSide stroke" />
	<g id="flecheBas" transform="translate(-11 0)">
		<line x1="64" y1="18" x2="64" y2="35" class="logoRect stroke" />
		<path d="M 56.7 27.7 L 64 35 L 71.3 27.7" class="logoRect stroke" />
	</g>
	<g id="flecheHaut" transform="translate(11 0) rotate(180)" transform-origin="64 27.5">
		<line x1="64" y1="18" x2="64" y2="35" class="logoRect stroke" />
		<path d="M 56.7 27.7 L 64 35 L 71.3 27.7" class="logoRect stroke" />
	</g>
	<g id="personnage">
		<rect x="59" y="54" width="10" height="8" id="tete" class="logo" />
		<rect x="58" y="66" width="12" height="20" id="torse" class="logo" />
		<path d="M 54.5 84 V 66 H 72 L 78 81" class="persoBras stroke" />
		<line x1="60.5" y1="85" x2="60.5" y2="105" class="persoBras stroke" />
		<line x1="67.5" y1="85" x2="67.5" y2="105" class="persoBras stroke" />
	</g>
	<g id="boutons">
		<rect x="84" y="66" width="4" height="4" class="logo" />
		<rect x="84" y="72" width="4" height="4" class="logo" />
		<rect x="84" y="78" width="4" height="4" class="logo" />
		<rect x="84" y="84" width="4" height="4" class="logo" />
	</g>
</svg>
