<?xml version="1.0" encoding="UTF-8" standalone="no"?>
<svg
	xmlns="http://www.w3.org/2000/svg"
	version="1.1"
	width="256"
	height="256"
	id="ca"
	viewBox="0 0 128 128">
	<style type="text/css"><![CDATA[
		@font-face{
			font-family: "Parisine";
			src: url("../parisine-regular.otf") format("opentype");
		}
		@font-face{
			font-family: "Parisine";
			font-weight: bold;
			src: url("../parisine-bold.otf") format("opentype");
		}
		
		.logoCable{
			fill: #050d9e;
			stroke: #050d9e;
			fill-opacity: 1;
			stroke-opacity: 0;
			font-family: Parisine;
			font-size: 105px;
			font-weight: bold;
		}
		
		.logoRectangle{
			stroke: #050d9e;
			stroke-opacity: 1;
			stroke-width: 6;
			fill-opacity: 0;
		}
	]]></style>
	<rect x="10" y="10" rx="10" ry="10" height="108" width="108"
		class="logoRectangle logoCable whiteBg" />
	<text class="logoCable" x="63" y="103.5" text-anchor="middle">C</text>
</svg>
