<?xml version="1.0" encoding="UTF-8" standalone="no"?>
<svg
	xmlns="http://www.w3.org/2000/svg"
	version="1.1"
	width="256"
	height="256"
	id="IconeAscenseur"
	viewBox="0 0 128 128">
	<defs id="defs">
		<mask id="QuaiMask" maskUnits="userSpaceOnUse">
			<rect x="0" y="0" width="128" height="128" fill="#ffffff" />
			<ellipse cx="104" cy="104" rx="88" ry="94" fill="#000000" />
			<rect x="0" y="100" width="64" height="28" fill="#ffffff" />
			<rect x="104" y="0" width="24" height="104" fill="#000000" />
		</mask>
	</defs>
	<style type="text/css"><![CDATA[
		.logo,.fill,.stroke,.both{
			fill: #777777;
			stroke: #777777;
		}
		.logo,.fill{
			fill-opacity: 1;
			stroke-opacity: 0;
		}
		.stroke{
			fill-opacity:0;
			stroke-opacity:1;
			stroke-width:10;
		}
		.both{
			fill-opacity:1;
			stroke-opacity:1;
			stroke-width:1.5;
		}
		.logoRect{ stroke-opacity:1; stroke-width: 3; }
		.persoBras{ stroke-width: 5; }
		.logoSide{ stroke-width: 12; }
		.black{ fill:#000000; }
		.bg{
			fill:#ffffff;
			fill-opacity: 1;
		}
		
		#eclair{
			stroke-opacity:1;
			stroke:#ffffff;
			stroke-width:1.5;
			
			fill-opacity:1;
			fill:#e2251a;
		}
		.eclairounet{
			fill:#e2251a;
			fill-opacity:1;
		}
	]]></style>
	<rect x="8.5" y="8.5" width="111" height="111"	id="cadre"	class="logoRect logo bg" />
	<g id="personnage" transform="translate(64,64) translate(-96 -36) rotate(-35) scale(.9,.9) translate(-64,-64)">
		<rect x="118" y="108" width="20" height="16" id="tete" class="perso fill" />
		<rect x="116" y="132" width="24" height="40" id="torse" class="perso fill" />
		<path d="M 103 168 L 109 146 V 132 H 144 L 150 146 L 152 166" class="perso stroke" />
		<path d="M 121 170 L 120 183 L 100 200" class="perso stroke" />
		<path d="M 135 170 L 135 180 L 142 209" class="perso stroke" />
	</g>
	<path id="eclair"
		d="M 78 24 L 60 54 H 66 L 48 84 H 54 L 42 104 H 45 L 63 80 H 58 L 78 50 H 74 L 93 24 Z" />
</svg>
