<?xml version="1.0" encoding="UTF-8" standalone="no"?>
<svg
	xmlns="http://www.w3.org/2000/svg"
	version="1.1"
	width="128"
	height="128"
	id="IconeEscalier"
	viewBox="0 0 128 128">
	<style type="text/css"><![CDATA[
		.logo,.stroke{
			fill: #050d9e;
			stroke: #050d9e;
		}
		.logo{
			fill-opacity: 1;
			stroke-opacity: 0;
		}
		.stroke{
			fill-opacity:0;
			stroke-opacity:1;
		}
		.logoRect{ stroke-opacity:1; stroke-width: 3; }
		.persoBras{ stroke-width: 6; }
		.logoSide{ stroke-width: 12; }
		.black{ fill:#000000; }
		.bg{
			fill:#ffffff;
			fill-opacity: 1;
		}
	]]></style>
	<rect y="8.5" x="8.5" height="111"	width="111" class="logoRect logo bg" />
	<g id="escalier">
		<rect x="9" y="106" width="22" height="7" class="logo" />
		<rect x="24" y="99" width="22" height="7" class="logo" />
		<rect x="39" y="92" width="22" height="7" class="logo" />
		<rect x="54" y="85" width="22" height="7" class="logo" />
		<rect x="69" y="78" width="22" height="7" class="logo" />
		<rect x="84" y="71" width="22" height="7" class="logo" />
		<rect x="99" y="64" width="22" height="7" class="logo" />
	</g>
	<g id="personnage" transform="translate(-13 -24)">
		<rect x="59" y="53" width="11" height="9" id="tete" class="logo" />
		<rect x="57" y="66" width="14" height="24" id="torse" class="logo" />
		<path d="M 53 88 L 55 66 H 73 L 80 84" class="persoBras stroke" />
		<line x1="60" y1="89" x2="60" y2="113" class="persoBras stroke" />
		<path d="M 66.5 87 L 73 95 V 106.5" class="persoBras stroke" />
	</g>
</svg>