<?xml version="1.0" encoding="UTF-8" standalone="no"?>
<svg
	xmlns="http://www.w3.org/2000/svg"
	xmlns:xlink="http://www.w3.org/1999/xlink"
	version="1.1"
	width="256"
	height="256"
	id="TCH_b"
	viewBox="0 0 256 256">
  <path
     style="fill:#ffffff"
     d="M 119.13107,73.260711 L 116.74982,73.041591 L 115.00597,72.632302 L 113.26213,72.22301 L 111.46162,71.545301 L 109.66111,70.867589 L 108.31067,70.088561 L 106.96024,69.309522 L 105.44677,68.04072 L 103.93329,66.771911 L 102.66039,65.172891 L 101.3875,63.573871 L 100.25404,61.39522 L 99.12059,59.21658 L 98.35755,57.0144 L 97.59451,54.81222 L 97.03188,52.19311 L 96.46924,49.573999 L 96.3234,44.810621 L 96.17755,40.047251 L 96.48799,37.66687 L 96.79843,35.2865 L 97.4893,32.64199 L 98.18017,29.99748 L 98.93898,28.15734 L 99.69779,26.31721 L 100.63072,24.64898 L 101.56365,22.98075 L 103.12964,21.03411 L 104.69563,19.08746 L 106.50046,17.61087 L 108.3053,16.13428 L 110.14631,15.0564 L 111.98732,13.97851 L 114.10399,13.15764 L 116.22065,12.33677 L 118.6019,11.84272 L 120.98315,11.34866 L 124.20103,11.34466 L 127.4189,11.34066 L 129.3604,11.71345 L 131.30191,12.08625 L 133.07369,12.7546 L 134.84548,13.42296 L 136.24869,14.32578 L 137.65191,15.22861 L 138.79136,16.34158 L 139.93081,17.45454 L 140.96547,19.05537 L 142.00014,20.6562 L 142.5189,22.04272 L 143.03767,23.42924 L 143.30203,24.99172 L 143.56638,26.5542 L 143.73201,28.27431 L 143.89764,29.99442 L 140.24561,31.64837 L 136.59358,33.30233 L 136.46128,33.30229 L 136.32899,33.30226 L 136.41279,30.80892 L 136.49659,28.31557 L 136.1129,26.09218 L 135.72921,23.86879 L 134.98646,22.3519 L 134.24372,20.83501 L 132.97448,19.54559 L 131.70523,18.25617 L 130.04835,17.44414 L 128.39146,16.6321 L 126.73361,16.46179 L 125.07576,16.29148 L 123.42632,16.74226 L 121.77688,17.19305 L 120.71854,17.91091 L 119.6602,18.62877 L 118.54484,20.2867 L 117.42947,21.94464 L 116.64679,24.38805 L 115.86409,26.83145 L 115.41912,29.60324 L 114.97415,32.37503 L 114.83884,40.87192 L 114.70354,49.36882 L 115.01012,52.50857 L 115.3167,55.64833 L 115.83462,58.021341 L 116.35253,60.394352 L 117.12927,62.054192 L 117.906,63.714042 L 119.1522,65.04633 L 120.39839,66.37861 L 122.0727,67.202861 L 123.747,68.02711 L 126.08383,68.160352 L 128.42066,68.29359 L 129.99356,67.841452 L 131.56646,67.3893 L 132.82389,66.58906 L 134.08132,65.788812 L 135.20778,64.53592 L 136.33424,63.28303 L 137.08288,61.754112 L 137.83151,60.225201 L 138.27086,58.86783 L 138.71021,57.510452 V 52.94632 V 48.3822 L 138.9748,48.39371 L 139.23938,48.40522 L 142.48431,49.27947 L 145.72923,50.153722 L 145.92389,50.34782 L 146.11855,50.541921 L 146.20475,53.100122 L 146.29095,55.65832 L 145.88771,57.579052 L 145.48446,59.499792 L 144.75803,61.15093 L 144.0316,62.80207 L 143.1178,64.257281 L 142.20399,65.712481 L 140.47912,67.499141 L 138.75425,69.285801 L 137.50832,70.085311 L 136.26238,70.884821 L 134.10535,71.672041 L 131.94832,72.459261 L 129.66526,72.85739 L 127.38219,73.25553 L 124.44722,73.367131 L 121.51225,73.47873 L 119.13099,73.25961 Z M 63.700861,45.47296 V 18.48546 H 56.424821 H 49.148778 V 15.31046 V 12.13546 H 73.093571 H 97.03836 V 15.31046 V 18.48546 H 89.630031 H 82.221691 V 45.47296 V 72.46046 H 72.961281 H 63.700861 Z M 152.93047,42.364101 L 152.99777,12.26775 H 161.72902 H 170.46027 L 170.52907,24.37243 L 170.59787,36.47712 H 177.60399 H 184.61011 L 184.67891,24.37243 L 184.74771,12.26775 L 193.41282,12.19795 L 202.07792,12.12815 V 42.294262 V 72.460381 H 193.34667 H 184.61542 V 57.511499 V 42.562541 H 177.60396 H 170.5925 V 57.511499 V 72.46046 H 161.72784 H 152.86317 Z"
     id="TCH" />
  <path
     style="fill:#ffffff"
     d="M 129.00655,87.44489 C 114.7368,87.46082 100.33999,91.180879 87.962065,98.479625 C 80.172453,103.07283 66.953097,115.9237 61.621443,124.08462 C 57.484241,130.41723 53.415031,140.32777 51.130203,149.63836 C 48.854902,158.91004 49.119679,176.2615 51.682846,185.9231 C 53.769719,193.78917 59.589706,206.71436 62.992106,211.03765 C 64.107341,212.45481 65.639589,213.61424 66.397657,213.61424 C 69.055729,213.61424 86.061211,206.79566 95.803519,201.82373 C 106.89928,196.16108 118.20524,188.84574 129.69465,179.89698 C 144.2387,168.56895 171.53456,139.92976 182.87184,124.10109 C 186.0845,119.61568 186.08446,119.61425 172.56541,120.25265 C 165.12989,120.60376 154.85162,121.16303 149.72369,121.4952 C 140.4002,122.09926 140.39949,122.09933 145.35372,126.46724 C 150.30795,130.83523 150.30877,130.83648 144.7736,137.79295 C 138.42838,145.76741 127.87687,155.80181 119.68101,161.65579 C 112.23858,166.97169 99.01519,173.47828 89.713373,176.40173 C 81.048408,179.125 68.047616,181.48653 67.074773,180.51369 C 65.556371,178.99532 65.625318,158.84885 67.171803,152.24427 C 72.302458,130.33182 91.989844,110.55081 113.7812,105.4134 C 128.25635,102.00083 148.00361,104.92707 160.58279,112.34899 C 163.81882,114.25827 164.00148,114.26417 174.34969,112.7095 C 184.83686,111.13398 184.83675,111.13355 181.77937,107.93693 C 177.48359,103.44543 168.95652,97.78504 161.06408,94.188338 C 151.12728,89.659991 140.10529,87.432315 129.00659,87.44489 Z M 193.50582,122.26196 C 192.94822,122.26196 190.37227,124.91366 187.78166,128.15448 C 183.07145,134.04689 183.07223,134.0469 185.78516,139.86631 C 190.42999,149.82983 191.63712,156.39893 191.15612,169.07818 C 190.83989,177.41126 190.1842,181.94133 188.64356,186.44281 C 183.51563,201.42573 172.2625,214.80862 158.89186,221.82533 C 151.8947,225.49732 139.31421,229.54234 134.88993,229.54234 C 133.16291,229.54234 133.14276,229.41486 134.55493,227.43419 C 142.57812,216.18219 163.26356,177.30386 163.26356,173.47563 C 163.26356,173.17108 159.78513,177.93249 155.53372,184.05653 C 146.09327,197.65526 122.44932,229.82525 116.25885,237.49357 C 113.76884,240.57801 111.73148,243.47277 111.73148,243.92775 C 111.73148,244.39416 119.60066,244.54679 129.7677,244.27727 C 149.8579,243.74509 153.93947,242.88075 165.80357,236.64634 C 184.72559,226.7031 199.94088,207.29749 205.53593,185.97438 C 209.41951,171.17377 208.05083,151.49644 202.12121,136.90362 C 199.228,129.7834 194.8023,122.262 193.50571,122.262 Z M 169.6631,153.01466 C 168.9607,152.88151 164.62703,157.16805 156.18166,165.78421 C 126.67218,195.89067 104.77841,212.52769 83.3542,221.1208 C 78.871375,222.91885 75.199737,224.69233 75.196196,225.06256 C 75.189096,225.73978 83.411992,232.0429 86.902533,234.03675 C 87.933168,234.62547 89.22086,235.12057 89.764614,235.13473 C 91.397291,235.18183 109.57746,222.4836 117.84556,215.52108 C 133.72589,202.14839 149.45842,184.52199 161.36048,166.76694 C 167.43763,157.70132 170.36547,153.14795 169.6631,153.01466 Z"
     id="Logo" />
</svg>
