<?xml version="1.0" encoding="UTF-8" standalone="no"?>
<svg
   xmlns="http://www.w3.org/2000/svg"
   version="1.1"
   width="172"
   height="172"
   id="TCH_logo_b"
   viewBox="42 84 172 172">
  <path
     style="fill:#ffffff"
     d="M 129.00655,87.44489 C 114.7368,87.46082 100.33999,91.180879 87.962065,98.479625 C 80.172453,103.07283 66.953097,115.9237 61.621443,124.08462 C 57.484241,130.41723 53.415031,140.32777 51.130203,149.63836 C 48.854902,158.91004 49.119679,176.2615 51.682846,185.9231 C 53.769719,193.78917 59.589706,206.71436 62.992106,211.03765 C 64.107341,212.45481 65.639589,213.61424 66.397657,213.61424 C 69.055729,213.61424 86.061211,206.79566 95.803519,201.82373 C 106.89928,196.16108 118.20524,188.84574 129.69465,179.89698 C 144.2387,168.56895 171.53456,139.92976 182.87184,124.10109 C 186.0845,119.61568 186.08446,119.61425 172.56541,120.25265 C 165.12989,120.60376 154.85162,121.16303 149.72369,121.4952 C 140.4002,122.09926 140.39949,122.09933 145.35372,126.46724 C 150.30795,130.83523 150.30877,130.83648 144.7736,137.79295 C 138.42838,145.76741 127.87687,155.80181 119.68101,161.65579 C 112.23858,166.97169 99.01519,173.47828 89.713373,176.40173 C 81.048408,179.125 68.047616,181.48653 67.074773,180.51369 C 65.556371,178.99532 65.625318,158.84885 67.171803,152.24427 C 72.302458,130.33182 91.989844,110.55081 113.7812,105.4134 C 128.25635,102.00083 148.00361,104.92707 160.58279,112.34899 C 163.81882,114.25827 164.00148,114.26417 174.34969,112.7095 C 184.83686,111.13398 184.83675,111.13355 181.77937,107.93693 C 177.48359,103.44543 168.95652,97.78504 161.06408,94.188338 C 151.12728,89.659991 140.10529,87.432315 129.00659,87.44489 Z M 193.50582,122.26196 C 192.94822,122.26196 190.37227,124.91366 187.78166,128.15448 C 183.07145,134.04689 183.07223,134.0469 185.78516,139.86631 C 190.42999,149.82983 191.63712,156.39893 191.15612,169.07818 C 190.83989,177.41126 190.1842,181.94133 188.64356,186.44281 C 183.51563,201.42573 172.2625,214.80862 158.89186,221.82533 C 151.8947,225.49732 139.31421,229.54234 134.88993,229.54234 C 133.16291,229.54234 133.14276,229.41486 134.55493,227.43419 C 142.57812,216.18219 163.26356,177.30386 163.26356,173.47563 C 163.26356,173.17108 159.78513,177.93249 155.53372,184.05653 C 146.09327,197.65526 122.44932,229.82525 116.25885,237.49357 C 113.76884,240.57801 111.73148,243.47277 111.73148,243.92775 C 111.73148,244.39416 119.60066,244.54679 129.7677,244.27727 C 149.8579,243.74509 153.93947,242.88075 165.80357,236.64634 C 184.72559,226.7031 199.94088,207.29749 205.53593,185.97438 C 209.41951,171.17377 208.05083,151.49644 202.12121,136.90362 C 199.228,129.7834 194.8023,122.262 193.50571,122.262 Z M 169.6631,153.01466 C 168.9607,152.88151 164.62703,157.16805 156.18166,165.78421 C 126.67218,195.89067 104.77841,212.52769 83.3542,221.1208 C 78.871375,222.91885 75.199737,224.69233 75.196196,225.06256 C 75.189096,225.73978 83.411992,232.0429 86.902533,234.03675 C 87.933168,234.62547 89.22086,235.12057 89.764614,235.13473 C 91.397291,235.18183 109.57746,222.4836 117.84556,215.52108 C 133.72589,202.14839 149.45842,184.52199 161.36048,166.76694 C 167.43763,157.70132 170.36547,153.14795 169.6631,153.01466 Z"
     id="Logo" />
  <!-- On s'excuse hein -->
</svg>
