<?xml version="1.0" encoding="UTF-8" standalone="no"?>
<svg
	xmlns="http://www.w3.org/2000/svg"
	version="1.1"
	width="40"
	height="40"
	viewBox="-20 -20 40 40">
	<style type="text/css"> <![CDATA[
		/* Instructions pour les logos */
		.LogoProjet{
			stroke-width:4;
			fill:none;
			fill-opacity:0;
			stroke:#000000;
			stroke-dasharray: 9 9;
		}
		.LogoProjetBg{
			fill:none;
			fill-opacity:0;
			stroke:#fcf529;
			stroke-width:3.75;
		}
		.LogoProjetFg{
			fill:none;
			fill-opacity:0;
			stroke:#000000;
			stroke-width:1;
		}
	]]> </style>
	
	<circle cx="0" cy="0" r="17" class="LogoProjetBg" />
	<circle cx="0" cy="0" r="17" class="LogoProjet" />
	<circle cx="0" cy="0" r="15" class="LogoProjetFg" />
	<circle cx="0" cy="0" r="19" class="LogoProjetFg" />
</svg>