<?xml version="1.0" encoding="UTF-8" standalone="no"?>
<svg
	xmlns="http://www.w3.org/2000/svg"
	xmlns:xlink="http://www.w3.org/1999/xlink"
	version="1.1"
	width="512"
	height="512"
	id="vente"
	viewBox="0 0 512 512">
	<!-- Style et polices -->
	<style type="text/css"> <![CDATA[
		/* Définition des polices */
		@font-face{
			font-family: "Parisine";
			src: url("../parisine-regular.otf") format("opentype");
		}
		@font-face{
			font-family: "Parisine";
			font-weight: bold;
			src: url("../parisine-bold.otf") format("opentype");
		}

		@font-face{
			font-family: "Tengwar Annatar";
			src: url("../font/TengwarAnnatar.ttf") format("truetype");
		}
		@font-face{
			font-family: "Tengwar Annatar";
			font-weight: bold;
			src: url("../font/TengwarAnnatarBold.ttf") format("truetype");
		}
		@font-face{
			font-family: "Tengwar Annatar";
			font-style: italic;
			src: url("../font/TengwarAnnatarItalic.ttf") format("truetype");
		}
		@font-face{
			font-family: "Tengwar Annatar";
			font-style: italic;
			font-weight: bold;
			src: url("../font/TengwarAnnatarBoldItalic.ttf") format("truetype");
		}

		@font-face{
			font-family: "Cirth Erebor";
			src: url("../font/Erebor.ttf") format("truetype");
		}
		@font-face{
			font-family: "Cirth Erebor-1";
			src: url("../font/Erebor1.ttf") format("truetype");
		}
		@font-face{
			font-family: "Cirth Erebor-2";
			src: url("../font/Erebor2.ttf") format("truetype");
		}
		@font-face{
			font-family: "Cirth Erebor Caps";
			src: url("../font/Erebcap.ttf") format("truetype");
		}
		@font-face{
			font-family: "Cirth Erebor Caps-1";
			src: url("../font/Erebcap1.ttf") format("truetype");
		}
		@font-face{
			font-family: "Cirth Erebor Caps-2";
			src: url("../font/Erebcap2.ttf") format("truetype");
		}
		
		
		text{
			fill:#ffffff;
			font-weight: bold;
		}
		.fr{
			font-size: 75px;
			font-family:Parisine;
		}
		.elfe{
			font-size: 53px;
			font-family:"Tengwar Annatar";
		}
		.nain{
			font-size: 40px;
			font-family:"Cirth Erebor";
		}
		
		.mdpCircle,.mdpDetail{
			fill-opacity:0;
		}
		.mdpCircle,.mdpCb,.mdpDetail{
			stroke:#ffffff;
			stroke-opacity:1;
			stroke-width:2.6px;
		}
		.mdpDetail{
			stroke-width:1.3px;
		}
		.bg,.mdpCb{
			fill:#009928;
		}
	]]></style>
	<!-- Fond vert -->
	<rect	x="0"	y="0"	height="171" width="512" class="bg" />
	<!-- Texte "Vente" -->
	<text	x="256"	y="80"	class="fr" text-anchor="middle">Vente</text>
	<text	x="216"	y="139"	class="elfe" text-anchor="end">t#a|R</text>
	<text	x="256"	y="141"	class="nain" text-anchor="start">l6,x@</text>
	<!-- Logo moyen de paiement -->
	<circle	cx="48"	cy="85"	r="32"	class="mdpCircle" />
	<!-- Carte bleue bg -->
	<rect	x="37"	y="71"	height="21" width="33" rx="5" ry="5" class="mdpCb" />
	<line	x1="60" y1="85" x2="65" y2="80" class="mdpDetail" />
	<line	x1="64" y1="85" x2="69" y2="80" class="mdpDetail" />
	<line	x1="68" y1="85" x2="70" y2="83" class="mdpDetail" />
	<line	x1="37"	y1="80"	x2="70" y2="80"	class="mdpDetail" />
	<line	x1="37"	y1="85"	x2="70" y2="85"	class="mdpDetail" />
	<!-- Carte bleue fg -->
	<rect	x="27"	y="80"	height="21" width="33" rx="5" ry="5" class="mdpCb" />
	<rect	x="31"	y="91"	height="7"	width="8" rx="1.3" ry="1.3" class="mdpDetail" />
	<line	x1="41"	y1="92"	x2="56" y2="92"	class="mdpDetail" />
	<line	x1="41"	y1="96"	x2="56" y2="96"	class="mdpDetail" />
	<!-- Logo TCH -->
	<image	x="448"	y="61"	height="16" width="64" xlink:href="../logo/tch_texte_b.svg" />
	<image	x="464"	y="77"	height="32" width="32" xlink:href="../logo/tch_logo_b.svg" />
</svg>
