<?xml version="1.0" encoding="UTF-8" standalone="no"?>
<svg
	xmlns="http://www.w3.org/2000/svg"
	xmlns:xlink="http://www.w3.org/1999/xlink"
	id="Ground"
	version="1.1"
	width="768"
	height="512"
	viewBox="0 0 3072 2048">
	<!-- Style -->
	<style type="text/css"> <![CDATA[
		.earthSurface{ fill:#000000; }
		.earthSurfaceGradient{ fill:url(#horizonGradient); }
		.earthTransition{ fill:url(#earthGradient); }
		.sky{ fill:#ffffff; }
	]]></style>
	<!-- Gradients -->
	<defs id="gradients">
		<linearGradient id="earthGradient" gradientTransform="rotate(90)">
			<stop offset="60%"	stop-color="#000000" stop-opacity="0.00" />
			<stop offset="99%"	stop-color="#000000" stop-opacity="0.50" />
		</linearGradient>
		<linearGradient id="horizonGradient" x1="0" y1="0" x2="0" y2="1">
			<stop offset="0%"	stop-color="#000000" stop-opacity="1.00" />
			<stop offset="15%"	stop-color="#000000" stop-opacity="1.00" />
			<stop offset="45%"	stop-color="#000000" stop-opacity="1.00" />
			<stop offset="100%"	stop-color="#000000" stop-opacity="1.00" />
		</linearGradient>
	</defs>
	
	<defs id="clips">
		<clipPath id="topLeftClip">
			<rect x="0" y="0" width="1024" height="1024" />
		</clipPath>
		<clipPath id="topCenterClip">
			<rect x="1024" y="0" width="1024" height="1024" />
		</clipPath>
		<clipPath id="topRightClip">
			<rect x="2048" y="0" width="1024" height="1024" />
		</clipPath>
		<clipPath id="bottomLeftClip">
			<rect x="0" y="1024" width="1024" height="1024" />
		</clipPath>
		<clipPath id="bottomCenterClip">
			<rect x="1024" y="1024" width="1024" height="1024" />
		</clipPath>
		<clipPath id="bottomRightClip">
			<rect x="2048" y="1024" width="1024" height="1024" />
		</clipPath>
		<clipPath id="skyClip">
			<rect x="2048" y="0" width="1024" height="626" />
			<rect x="1024" y="0" width="1024" height="1024" />
			<rect x="0" y="1024" width="3072" height="626" />
		</clipPath>
		<clipPath id="skySideClip">
			<rect x="2048" y="0" width="1024" height="626" />
			<rect x="0" y="1024" width="3072" height="626" />
		</clipPath>
	</defs>
	
	<g id="sky">
		<rect x="1024" y="0" width="1024" height="1024" class="sky" />
		<rect x="2048" y="0" width="1024" height="626" class="sky" />
		<rect x="0" y="1024" width="3072" height="626" class="sky" />
	</g>
	
	<g id="earth">
		<rect x="0" y="1120" width="3072" height="512" class="sky" />
		<rect x="2048" y="96" width="1024" height="512" class="sky" />
		
		<rect x="0" y="0" width="1024" height="1024" class="earthSurface" />
		<rect x="0" y="1631" width="3072" height="417" class="earthSurfaceGradient" />
		<rect x="2048" y="607" width="1024" height="417" class="earthSurfaceGradient" />
	</g>
	
</svg>
