<?xml version="1.0" encoding="UTF-8" standalone="no"?>
<svg
	xmlns="http://www.w3.org/2000/svg"
	xmlns:xlink="http://www.w3.org/1999/xlink"
	id="LightPollution"
	version="1.1"
	width="1536"
	height="1024"
	viewBox="0 0 3072 2048">
	<!-- Style -->
	<style type="text/css"> <![CDATA[
		.earthSurface{ fill:#000000; }
		.earthTransition{ fill:url(#earthGradient); }
		.zenith{ fill:#040408; }
		.sky{ fill:#040408; }
	]]></style>
	
	<defs id="clips">
		<clipPath id="topLeftClip">
			<rect x="0" y="0" width="1024" height="1024" />
		</clipPath>
		<clipPath id="topCenterClip">
			<rect x="1024" y="0" width="1024" height="1024" />
		</clipPath>
		<clipPath id="topRightClip">
			<rect x="2048" y="0" width="1024" height="1024" />
		</clipPath>
		<clipPath id="bottomLeftClip">
			<rect x="0" y="1024" width="1024" height="1024" />
		</clipPath>
		<clipPath id="bottomCenterClip">
			<rect x="1024" y="1024" width="1024" height="1024" />
		</clipPath>
		<clipPath id="bottomRightClip">
			<rect x="2048" y="1024" width="1024" height="1024" />
		</clipPath>
		<clipPath id="skyClip">
			<rect x="2048" y="0" width="1024" height="626" />
			<rect x="1024" y="0" width="1024" height="1024" />
			<rect x="0" y="1024" width="3072" height="626" />
		</clipPath>
		<clipPath id="skySideClip">
			<rect x="2048" y="0" width="1024" height="626" />
			<rect x="0" y="1024" width="3072" height="626" />
		</clipPath>
	</defs>
	<defs id="gradients">
		<linearGradient id="earthGradient" gradientTransform="rotate(90)">
			<stop offset="1%"	stop-color="#040408" stop-opacity="1.00" />
			<stop offset="50%"	stop-color="#101019" stop-opacity="1.00" />
			<stop offset="99%"	stop-color="#191920" stop-opacity="1.00" />
		</linearGradient>
		<radialGradient id="zenithGradient" fr="17%">
			<stop offset="0%" stop-color="#060606" stop-opacity="1.0" />
			<stop offset="50%" stop-color="#060606" stop-opacity="0.7" />
			<stop offset="95%" stop-color="#060606" stop-opacity="0.0" />
		</radialGradient>
	</defs>
	
	<g id="sky">
		<rect x="1024" y="0" width="1024" height="1024" class="sky" />
		<rect x="2048" y="0" width="1024" height="626" class="sky" />
		<rect x="0" y="1024" width="3072" height="626" class="sky" />
		
		<circle cx="1536" cy="512" r="512" class="zenith" />
	</g>
	
	<g id="earth">
		<rect x="0" y="1024" width="3072" height="512" class="earthTransition" />
		<rect x="2048" y="0" width="1024" height="512" class="earthTransition" />
		
		<rect x="0" y="0" width="1024" height="1024" class="earthSurface" />
		<rect x="0" y="1535" width="3072" height="513" class="earthSurface" />
		<rect x="2048" y="511" width="1024" height="513" class="earthSurface" />
	</g>
	
</svg>
