<?xml version="1.0" encoding="UTF-8" standalone="no"?>
<svg
	xmlns="http://www.w3.org/2000/svg"
	xmlns:xlink="http://www.w3.org/1999/xlink"
	id="GroundOcean"
	version="1.1"
	width="1536"
	height="1024"
	viewBox="0 0 3072 2048">
	<!-- Style -->
	<style type="text/css"> <![CDATA[
		.earthSurface{ fill:#152850; }
		.earthSurfaceGradient{ fill:url(#horizonGradient); }
		.earthTransition{ fill:url(#earthGradient); }
		.sky{ fill:#000000; }
	]]></style>
	<!-- Gradients -->
	<defs id="gradients">
		<linearGradient id="earthGradient" gradientTransform="rotate(90)">
			<stop offset="60%"	stop-color="#99bbda" stop-opacity="0.00" />
			<stop offset="99%"	stop-color="#5b9bd6" stop-opacity="0.25" />
		</linearGradient>
		<linearGradient id="horizonGradient" x1="0" y1="0" x2="0" y2="1">
			<stop offset="0%"	stop-color="#3760b8" stop-opacity="1.00" />
			<stop offset="15%"	stop-color="#1c4295" stop-opacity="1.00" />
			<stop offset="45%"	stop-color="#1c366c" stop-opacity="1.00" />
			<stop offset="100%"	stop-color="#152850" stop-opacity="1.00" />
		</linearGradient>
	</defs>
	
	<defs id="clips">
		<clipPath id="topLeftClip">
			<rect x="0" y="0" width="1024" height="1024" />
		</clipPath>
		<clipPath id="topCenterClip">
			<rect x="1024" y="0" width="1024" height="1024" />
		</clipPath>
		<clipPath id="topRightClip">
			<rect x="2048" y="0" width="1024" height="1024" />
		</clipPath>
		<clipPath id="bottomLeftClip">
			<rect x="0" y="1024" width="1024" height="1024" />
		</clipPath>
		<clipPath id="bottomCenterClip">
			<rect x="1024" y="1024" width="1024" height="1024" />
		</clipPath>
		<clipPath id="bottomRightClip">
			<rect x="2048" y="1024" width="1024" height="1024" />
		</clipPath>
		<clipPath id="skyClip">
			<rect x="2048" y="0" width="1024" height="626" />
			<rect x="1024" y="0" width="1024" height="1024" />
			<rect x="0" y="1024" width="3072" height="626" />
		</clipPath>
		<clipPath id="skySideClip">
			<rect x="2048" y="0" width="1024" height="626" />
			<rect x="0" y="1024" width="3072" height="626" />
		</clipPath>
	</defs>
	
	<g id="sky">
		<rect x="1024" y="0" width="1024" height="1024" class="sky" />
		<rect x="2048" y="0" width="1024" height="626" class="sky" />
		<rect x="0" y="1024" width="3072" height="626" class="sky" />
	</g>
	
	<g id="earth">
		<rect x="0" y="1072" width="3072" height="512" class="earthTransition" />
		<rect x="2048" y="48" width="1024" height="512" class="earthTransition" />
		
		<rect x="0" y="0" width="1024" height="1024" class="earthSurface" />
		<rect x="0" y="1583" width="3072" height="465" class="earthSurfaceGradient" />
		<rect x="2048" y="559" width="1024" height="465" class="earthSurfaceGradient" />
	</g>
	
</svg>
