<?xml version="1.0" encoding="UTF-8" standalone="no"?>
<svg
	xmlns="http://www.w3.org/2000/svg"
	xmlns:xlink="http://www.w3.org/1999/xlink"
	id="Ground"
	version="1.1"
	width="3072"
	height="2048"
	viewBox="0 0 3072 2048">
	<!-- Style -->
	<style type="text/css"> <![CDATA[
		
	]]></style>
	
	<defs id="clips">
		<clipPath id="bounds">
			<rect x="0" y="0" width="3072" height="2048" />
		</clipPath>
	</defs>
	<defs id="gradients">
		<radialGradient id="mercuryGradient">
			<stop offset="30%"	stop-color="#3d3d3d" stop-opacity="1.00" />
			<stop offset="60%"	stop-color="#4f4f4f" stop-opacity="1.00" />
			<stop offset="70%"	stop-color="#636363" stop-opacity="1.00" />
			<stop offset="75%"	stop-color="#232323" stop-opacity="0.20" />
			<stop offset="85%"	stop-color="#000000" stop-opacity="0.00" />
		</radialGradient>
		<radialGradient id="venusGradient">
			<stop offset="30%"	stop-color="#e3e3e3" stop-opacity="1.00" />
			<stop offset="60%"	stop-color="#cacac3" stop-opacity="1.00" />
			<stop offset="80%"	stop-color="#bfbdaf" stop-opacity="1.00" />
			<stop offset="85%"	stop-color="#adaa99" stop-opacity="0.20" />
			<stop offset="90%"	stop-color="#adaa99" stop-opacity="0.00" />
		</radialGradient>
		<radialGradient id="venusHalo">
			<stop offset="5%"		stop-color="#e7e7e3" stop-opacity="0.75" />
			<stop offset="15%"		stop-color="#e7e7e3" stop-opacity="0.45" />
			<stop offset="35%"		stop-color="#bdbdbd" stop-opacity="0.17" />
			<stop offset="75%"		stop-color="#acacac" stop-opacity="0.03" />
			<stop offset="95%"		stop-color="#9b9b9b" stop-opacity="0.00" />
		</radialGradient>
		<radialGradient id="marsGradient">
			<stop offset="50%"	stop-color="#edd1be" stop-opacity="1.00" />
			<stop offset="60%"	stop-color="#d7986e" stop-opacity="1.00" />
			<stop offset="70%"	stop-color="#a77452" stop-opacity="1.00" />
			<stop offset="75%"	stop-color="#cfc09f" stop-opacity="0.30" />
			<stop offset="85%"	stop-color="#cfc09f" stop-opacity="0.00" />
		</radialGradient>
		<radialGradient id="marsHalo">
			<stop offset="5%"		stop-color="#eac9b2" stop-opacity="0.75" />
			<stop offset="15%"		stop-color="#eac9b2" stop-opacity="0.45" />
			<stop offset="35%"		stop-color="#e69865" stop-opacity="0.17" />
			<stop offset="75%"		stop-color="#ee975c" stop-opacity="0.03" />
			<stop offset="95%"		stop-color="#ee975c" stop-opacity="0.00" />
		</radialGradient>
		<radialGradient id="jupiterGradient">
			<stop offset="50%"	stop-color="#e2c8a0" stop-opacity="1.00" />
			<stop offset="60%"	stop-color="#d5a55c" stop-opacity="1.00" />
			<stop offset="65%"	stop-color="#f6c06e" stop-opacity="1.00" />
			<stop offset="85%"	stop-color="#ecd8ba" stop-opacity="0.30" />
			<stop offset="95%"	stop-color="#ecd8ba" stop-opacity="0.00" />
		</radialGradient>
		<radialGradient id="jupiterHalo">
			<stop offset="5%"		stop-color="#f1e5d4" stop-opacity="0.75" />
			<stop offset="15%"		stop-color="#f1e5d4" stop-opacity="0.45" />
			<stop offset="35%"		stop-color="#f2d3a5" stop-opacity="0.17" />
			<stop offset="75%"		stop-color="#ff9f0f" stop-opacity="0.03" />
			<stop offset="95%"		stop-color="#ff9f0f" stop-opacity="0.00" />
		</radialGradient>
		<radialGradient id="saturnGradient">
			<stop offset="50%"	stop-color="#e7d8b0" stop-opacity="1.00" />
			<stop offset="60%"	stop-color="#d5c69f" stop-opacity="1.00" />
			<stop offset="75%"	stop-color="#dfd9c7" stop-opacity="1.00" />
			<stop offset="85%"	stop-color="#ded8c8" stop-opacity="0.30" />
			<stop offset="95%"	stop-color="#ded8c8" stop-opacity="0.00" />
		</radialGradient>
		<radialGradient id="saturnHalo">
			<stop offset="5%"		stop-color="#f1e9d4" stop-opacity="0.75" />
			<stop offset="15%"		stop-color="#f1e9d4" stop-opacity="0.45" />
			<stop offset="35%"		stop-color="#ded6be" stop-opacity="0.17" />
			<stop offset="75%"		stop-color="#d4d1c8" stop-opacity="0.03" />
			<stop offset="95%"		stop-color="#d4d1c8" stop-opacity="0.00" />
		</radialGradient>
		<radialGradient id="uranusGradient">
			<stop offset="50%"	stop-color="#99b2cb" stop-opacity="1.00" />
			<stop offset="75%"	stop-color="#a5bfd9" stop-opacity="1.00" />
			<stop offset="85%"	stop-color="#bac6d3" stop-opacity="0.30" />
			<stop offset="95%"	stop-color="#bac6d3" stop-opacity="0.00" />
		</radialGradient>
		<radialGradient id="neptuneGradient">
			<stop offset="60%"	stop-color="#7fa9d1" stop-opacity="1.00" />
			<stop offset="75%"	stop-color="#407cb3" stop-opacity="1.00" />
			<stop offset="85%"	stop-color="#50667b" stop-opacity="0.30" />
			<stop offset="95%"	stop-color="#50667b" stop-opacity="0.00" />
		</radialGradient>
		<radialGradient id="sunGradient">
			<stop offset="0%"		stop-color="#fffef9" stop-opacity="1.00" />
			<stop offset="30%"		stop-color="#ffe57f" stop-opacity="1.00" />
			<stop offset="40%"		stop-color="#ebb256" stop-opacity="1.00" />
			<stop offset="42%"		stop-color="#e99610" stop-opacity="1.00" />
			<stop offset="42.5%"	stop-color="#000000" stop-opacity="1.00" />
			<stop offset="42.6%"	stop-color="#000000" stop-opacity="0.00" />
			<stop offset="43.5%"	stop-color="#c55615" stop-opacity="0.35" />
			<stop offset="47%"		stop-color="#e8a730" stop-opacity="0.25" />
			<stop offset="65%"		stop-color="#f9a200" stop-opacity="0.15" />
			<stop offset="80%"		stop-color="#f9a200" stop-opacity="0.05" />
			<stop offset="95%"		stop-color="#f9a200" stop-opacity="0.00" />
		</radialGradient>
		<radialGradient id="sunHalo">
			<stop offset="5%"		stop-color="#ffebc6" stop-opacity="0.75" />
			<stop offset="15%"		stop-color="#ffebc6" stop-opacity="0.45" />
			<stop offset="35%"		stop-color="#ffdd9e" stop-opacity="0.17" />
			<stop offset="75%"		stop-color="#ffcb6b" stop-opacity="0.03" />
			<stop offset="95%"		stop-color="#ef9b00" stop-opacity="0.00" />
		</radialGradient>
		<radialGradient id="sunsetGradient">
			<stop offset="0%"		stop-color="#ffe1e0" stop-opacity="1.00" />
			<stop offset="30%"		stop-color="#fbbfb1" stop-opacity="1.00" />
			<stop offset="40%"		stop-color="#f66541" stop-opacity="1.00" />
			<stop offset="42%"		stop-color="#c62700" stop-opacity="1.00" />
			<stop offset="42.5%"	stop-color="#000000" stop-opacity="1.00" />
			<stop offset="42.6%"	stop-color="#000000" stop-opacity="0.00" />
			<stop offset="43.5%"	stop-color="#c55615" stop-opacity="0.35" />
			<stop offset="47%"		stop-color="#e87330" stop-opacity="0.25" />
			<stop offset="65%"		stop-color="#f92900" stop-opacity="0.15" />
			<stop offset="80%"		stop-color="#f92900" stop-opacity="0.05" />
			<stop offset="95%"		stop-color="#f92900" stop-opacity="0.00" />
		</radialGradient>
		<radialGradient id="sunsetHalo">
			<stop offset="5%"		stop-color="#f38067" stop-opacity="0.55" />
			<stop offset="15%"		stop-color="#f38067" stop-opacity="0.50" />
			<stop offset="35%"		stop-color="#e47171" stop-opacity="0.35" />
			<stop offset="60%"		stop-color="#e6648d" stop-opacity="0.15" />
			<stop offset="95%"		stop-color="#e6648d" stop-opacity="0.00" />
		</radialGradient>
		<radialGradient id="sunOverlayGradient">
			<stop offset="0%"		stop-color="#fff1e0" stop-opacity="1.00" />
			<stop offset="30%"		stop-color="#fae7b1" stop-opacity="1.00" />
			<stop offset="40%"		stop-color="#f6c541" stop-opacity="1.00" />
			<stop offset="42%"		stop-color="#c69500" stop-opacity="1.00" />
			<stop offset="42.5%"	stop-color="#000000" stop-opacity="1.00" />
			<stop offset="42.6%"	stop-color="#000000" stop-opacity="0.00" />
			<stop offset="43.5%"	stop-color="#c6a814" stop-opacity="0.35" />
			<stop offset="47%"		stop-color="#e8ba30" stop-opacity="0.25" />
			<stop offset="65%"		stop-color="#f9e000" stop-opacity="0.15" />
			<stop offset="80%"		stop-color="#f9e000" stop-opacity="0.05" />
			<stop offset="95%"		stop-color="#f9e000" stop-opacity="0.00" />
		</radialGradient>
		<radialGradient id="sunOverlayHalo">
			<stop offset="5%"		stop-color="#f2bb68" stop-opacity="0.55" />
			<stop offset="15%"		stop-color="#f2bb68" stop-opacity="0.50" />
			<stop offset="35%"		stop-color="#f3c386" stop-opacity="0.30" />
			<stop offset="60%"		stop-color="#f4e498" stop-opacity="0.10" />
			<stop offset="95%"		stop-color="#f4e498" stop-opacity="0.00" />
		</radialGradient>
	</defs>
	
	<!-- <rect x="0" y="0" width="3072" height="2048" fill="#000000" /> -->
	<!--<image xlink:href="ref_repere.png" x="0" y="0" width="3072" height="2048" />-->
	<!--<image xlink:href="jupiter.png" x="0" y="0" width="3072" height="2048" />-->
	<!--<image xlink:href="mars.png" x="0" y="0" width="3072" height="2048" />-->
	<!-- <image xlink:href="neptune.png" x="0" y="0" width="3072" height="2048" /> -->
	<!--<image xlink:href="saturne.png" x="0" y="0" width="3072" height="2048" />-->
	<!-- <image xlink:href="uranus.png" x="0" y="0" width="3072" height="2048" /> -->
	<!--<image xlink:href="sun_big.png" x="0" y="0" width="3072" height="2048" style="mix-blend-mode:lighten;" />-->
	
	<g id="sunAndInnerPlanets">
		<rect x="0" y="0" width="3072" height="2048" fill-opacity="1" fill="#000000" />
		<g id="mercury">
			<circle cx="0" cy="0" r="0.75" fill="url(#mercuryGradient)" transform="translate(2560 92) scale(.8 1)" />
		</g>
		<g id="venus">
			<circle cx="0" cy="0" r="4.00" fill="url(#venusGradient)" transform="translate(2560 92) scale(.8 1)" />
			<circle cx="0" cy="0" r="16.00" fill="url(#venusHalo)" transform="translate(2560 92) scale(.8 1)" />
		</g>
		<g id="sun">
			<circle cx="0" cy="0" r="36" fill="url(#sunGradient)" transform="translate(2560 92) scale(.8 1)" />
			<circle cx="0" cy="0" r="86" fill="url(#sunHalo)" transform="translate(2560 92) scale(.8 1)" />
		</g>
	</g>
	
	<g id="sunOverlay" clip-path="url(#bounds)" transform="translate(0 -4096)">
		<g id="sun_overlay">
			<rect x="0" y="0" width="3072" height="2048" fill-opacity="1" fill="#000000" />
			<circle cx="0" cy="0" r="39" fill="url(#sunOverlayGradient)" transform="translate(2560 92) scale(.8 1)" />
			<circle cx="0" cy="0" r="400" fill="url(#sunOverlayHalo)" transform="translate(2560 92) scale(.8 1)" />
			<circle cx="0" cy="0" r="400" fill="url(#sunOverlayHalo)" transform="translate(1536 -92) scale(.8 .9)" />
		</g>
	</g>
	
	<g id="sunsetOverlay" clip-path="url(#bounds)" transform="translate(0 -2048)">
		<g id="sunset">
			<rect x="0" y="0" width="3072" height="2048" fill-opacity="1" fill="#000000" />
			<circle cx="0" cy="0" r="42" fill="url(#sunsetGradient)" transform="translate(2560 92) scale(.8 1)" />
			<circle cx="0" cy="0" r="500" fill="url(#sunsetHalo)" transform="translate(2560 92) scale(.8 1)" />
			<circle cx="0" cy="0" r="500" fill="url(#sunsetHalo)" transform="translate(1536 -92) scale(.8 .9)" />
		</g>
	</g>
	
	<g id="mars" transform="translate(0 2048)">
		<rect x="0" y="0" width="3072" height="2048" fill-opacity="0" />
		<circle cx="587" cy="1672" r="2.25" fill="url(#marsGradient)" />
		<circle cx="587" cy="1672" r="9.00" fill="url(#marsHalo)" />
	</g>
	
	<g id="jupiter" transform="translate(0 4096)">
		<rect x="0" y="0" width="3072" height="2048" fill-opacity="0" />
		<circle cx="1536" cy="1888" r="2.00" fill="url(#jupiterGradient)" />
		<circle cx="1536" cy="1888" r="8.00" fill="url(#jupiterHalo)" />
	</g>
	
	<g id="saturnAndOuterPlanets" transform="translate(0 6144)">
		<rect x="0" y="0" width="3072" height="2048" fill-opacity="0" />
		<g id="saturn">
			<circle cx="2540" cy="1512" r="1.25" fill="url(#saturnGradient)" />
			<circle cx="2540" cy="1512" r="5.00" fill="url(#saturnHalo)" />
		</g>
		<g id="uranus">
			<circle cx="0" cy="0" r="0.7" fill="url(#uranusGradient)" transform="translate(2600 167) scale(.8 1)" />
		</g>
		<g id="neptune">
			<circle cx="0" cy="0" r="0.5" fill="url(#neptuneGradient)" transform="translate(2319 139) scale(.8 1)"  />
		</g>
	</g>
	
</svg>
