<?xml version="1.0" encoding="UTF-8" standalone="no"?>
<svg
	xmlns="http://www.w3.org/2000/svg"
	xmlns:xlink="http://www.w3.org/1999/xlink"
	id="AccesQuais"
	version="1.1"
	width="512"
	height="96"
	viewBox="0 0 512 96">
	<!-- Style et polices -->
	<style type="text/css"> <![CDATA[
		@font-face{
			font-family: "Parisine";
			src: url("../parisine-regular.otf") format("opentype");
		}
		@font-face{
			font-family: "Parisine";
			font-weight: bold;
			src: url("../parisine-bold.otf") format("opentype");
		}
		
		@font-face{
			font-family: "Tengwar Annatar";
			src: url("../font/TengwarAnnatar.ttf") format("truetype");
		}
		@font-face{
			font-family: "Tengwar Annatar";
			font-weight: bold;
			src: url("../font/TengwarAnnatarBold.ttf") format("truetype");
		}
		@font-face{
			font-family: "Tengwar Annatar";
			font-style: italic;
			src: url("../font/TengwarAnnatarItalic.ttf") format("truetype");
		}
		@font-face{
			font-family: "Tengwar Annatar";
			font-style: italic;
			font-weight: bold;
			src: url("../font/TengwarAnnatarBoldItalic.ttf") format("truetype");
		}
		
		@font-face{
			font-family: "Cirth Erebor";
			src: url("../font/Erebor.ttf") format("truetype");
		}
		@font-face{
			font-family: "Cirth Erebor-1";
			src: url("../font/Erebor1.ttf") format("truetype");
		}
		@font-face{
			font-family: "Cirth Erebor-2";
			src: url("../font/Erebor2.ttf") format("truetype");
		}
		@font-face{
			font-family: "Cirth Erebor Caps";
			src: url("../font/Erebcap.ttf") format("truetype");
		}
		@font-face{
			font-family: "Cirth Erebor Caps-1";
			src: url("../font/Erebcap1.ttf") format("truetype");
		}
		@font-face{
			font-family: "Cirth Erebor Caps-2";
			src: url("../font/Erebcap2.ttf") format("truetype");
		}
		
		text{
			fill:#050d9e;
			font-family:Parisine;
			font-weight:bold;
		}
		.nain{
			font-family:"Cirth Erebor";
			font-weight:normal;
		}
		.nain.subinfo{
			font-size:9px;
		}
		.elfe{
			font-family:"Tengwar Annatar";
			font-weight:normal;
		}
		.elfe.subinfo{
			font-size:13px;
		}
		
		.dir{
			font-size:26px;
		}
		.ld{
			font-style:italic;
			font-size:14px;
		}
		.info{
			font-size:20px;
		}
		
		.fakebg{ fill-opacity:0; }
		.bg,.ld{ fill:#ffffff; }
		.ldbg{ fill:#704b1c; }
		.hrbg{ fill:#050d9e; }
		
		.fMain,.fSide{ stroke:#050d9e; }
		.fMain{ stroke-width:10px; }
		.fSide{ stroke-width:9px; }
	]]></style>
	<!-- Script de défilement -->
	<script xlink:href="acces_quais.js" />
	<script type="text/javascript"><![CDATA[
		window.onload = function(){	onLoad(); }
	]]></script>
	
	<g id="lignes">
		<!-- TVQ ?? -->
		<g id="tvq" transform="translate(0,-96)">
			<rect class="bg"					x="64"	y="0"	width="448" height="96" />
			<rect class="hrbg"					x="68"	y="1"	width="440" height="1" />
			<image xlink:href="../logo/quai.svg" x="78"	y="18"	width="64"	height="64" />
			<text class="info"					x="160"	y="36">Pour ces directions, passer par le quai</text>
				<!-- (Towards) directions	these(+allat),	[imp] go	through	platform that. -->
				<!--			tier		sine+nna,		á	lenna	ter		talma	 tana. -->
			<text class="elfe subinfo"			x="161"	y="57">1T`V6 iT5$5"# = ~C j$5"# 1R6 1Ejt# 1E5# -</text>
				<!-- To	directions	these,	go-through(imp)	flat+halt		that. -->
				<!-- Du	arathâkh	'alâ,	biraignigî		shargh+TuDNu	tada. -->
			<text class="nain subinfo"			x="161"	y="76">9SIc@c0vtIgcavI 2l@clR,lR"I%c@T8S9,SI8c9cP</text>
		</g>
		<g id="tvq_d" transform="translate(512,-96)">
			<rect class="bg"					x="0"	y="0"	width="448" height="96" />
			<rect class="hrbg"					x="4"	y="1"	width="440" height="1" />
			<image xlink:href="../logo/quai.svg" x="8"	y="18"	width="64"	height="64" />
			<text class="info"					x="90"	y="36">Pour ces directions, passer par le quai</text>
			<text class="elfe subinfo"			x="91"	y="57">1T`V6 iT5$5"# = ~C j$5"# 1R6 1Ejt# 1E5# -</text>
			<text class="nain subinfo"			x="91"	y="76">9SIc@c0vtIgcavI 2l@clR,lR"I%c@T8S9,SI8c9cP</text>
		</g>
		
		<!-- Ligne de métro 1 -->
		<g id="m1_dir" transform="translate(0,0)">
			<rect class="hrbg"					x="64"	y="0"	width="448" height="4" />
			<rect class="bg"					x="64"	y="4"	width="448" height="92" />
			<image xlink:href="../logo/m.svg"	x="78"	y="18"	width="64"	height="64" />
			<image xlink:href="../logo/1.svg"	x="150"	y="18"	width="64"	height="64" />
			<text class="dir"					x="228"	y="45">Dorlinor</text>
			<text class="dir"					x="228"	y="75">Grenat–Ville</text>
		</g>
		<g id="m1_dir_d" transform="translate(512,0)">
			<rect class="hrbg"					x="0"	y="0"	width="448" height="4" />
			<rect class="bg"					x="0"	y="4"	width="448" height="92" />
			<image xlink:href="../logo/m.svg"	x="8"	y="18"	width="64"	height="64" />
			<image xlink:href="../logo/1.svg"	x="80"	y="18"	width="64"	height="64" />
			<text class="dir"					x="158"	y="45">Dorlinor</text>
			<text class="dir"					x="158"	y="75">Grenat–Ville</text>
		</g>
		<g id="m1_12" transform="translate(1024,0)">
			<rect class="hrbg"					x="64"	y="0"	width="448" height="4" />
			<rect class="bg"					x="64"	y="4"	width="448" height="92" />
			<image xlink:href="../logo/m.svg"	x="78"	y="18"	width="64"	height="64" />
			<image xlink:href="../logo/1.svg"	x="150"	y="18"	width="64"	height="64" />
			<text class="dir"					x="228"	y="60">Dorlinor</text>
		</g>
		<g id="m1_12_d" transform="translate(1536,0)">
			<rect class="hrbg"					x="0"	y="0"	width="448" height="4" />
			<rect class="bg"					x="0"	y="4"	width="448" height="92" />
			<image xlink:href="../logo/m.svg"	x="8"	y="18"	width="64"	height="64" />
			<image xlink:href="../logo/1.svg"	x="80"	y="18"	width="64"	height="64" />
			<text class="dir"					x="158"	y="60">Dorlinor</text>
		</g>
		<g id="m1_11" transform="translate(2048,0)">
			<rect class="hrbg"					x="64"	y="0"	width="448" height="4" />
			<rect class="bg"					x="64"	y="4"	width="448" height="92" />
			<image xlink:href="../logo/m.svg"	x="78"	y="18"	width="64"	height="64" />
			<image xlink:href="../logo/1.svg"	x="150"	y="18"	width="64"	height="64" />
			<text class="dir"					x="228"	y="60">Grenat–Ville</text>
		</g>
		<g id="m1_11_d" transform="translate(2560,0)">
			<rect class="hrbg"					x="0"	y="0"	width="448" height="4" />
			<rect class="bg"					x="0"	y="4"	width="448" height="92" />
			<image xlink:href="../logo/m.svg"	x="8"	y="18"	width="64"	height="64" />
			<image xlink:href="../logo/1.svg"	x="80"	y="18"	width="64"	height="64" />
			<text class="dir"					x="158"	y="60">Grenat–Ville</text>
		</g>
		<!-- Ligne de métro 2 -->
		<g id="m2_dir" transform="translate(0,96)">
			<rect class="hrbg"					x="64"	y="0"	width="448" height="4" />
			<rect class="bg"					x="64"	y="4"	width="448" height="92" />
			<image xlink:href="../logo/m.svg"	x="78"	y="18"	width="64"	height="64" />
			<image xlink:href="../logo/2.svg"	x="150"	y="18"	width="64"	height="64" />
			<text class="dir"					x="228"	y="45">Sablons–Brimiel</text>
			<text class="dir"					x="228"	y="75">Évenis–Éclesta</text>
		</g>
		<g id="m2_dir_d" transform="translate(512,96)">
			<rect class="hrbg"					x="0"	y="0"	width="448" height="4" />
			<rect class="bg"					x="0"	y="4"	width="448" height="92" />
			<image xlink:href="../logo/m.svg"	x="8"	y="18"	width="64"	height="64" />
			<image xlink:href="../logo/2.svg"	x="80"	y="18"	width="64"	height="64" />
			<text class="dir"					x="158"	y="45">Sablons–Brimiel</text>
			<text class="dir"					x="158"	y="75">Évenis–Éclesta</text>
		</g>
		<g id="m2_22" transform="translate(1024,96)">
			<rect class="hrbg"					x="64"	y="0"	width="448" height="4" />
			<rect class="bg"					x="64"	y="4"	width="448" height="92" />
			<image xlink:href="../logo/m.svg"	x="78"	y="18"	width="64"	height="64" />
			<image xlink:href="../logo/2.svg"	x="150"	y="18"	width="64"	height="64" />
			<text class="dir"					x="228"	y="60">Sablons–Brimiel</text>
		</g>
		<g id="m2_22_d" transform="translate(1536,96)">
			<rect class="hrbg"					x="0"	y="0"	width="448" height="4" />
			<rect class="bg"					x="0"	y="4"	width="448" height="92" />
			<image xlink:href="../logo/m.svg"	x="8"	y="18"	width="64"	height="64" />
			<image xlink:href="../logo/2.svg"	x="80"	y="18"	width="64"	height="64" />
			<text class="dir"					x="158"	y="60">Sablons–Brimiel</text>
		</g>
		<g id="m2_21" transform="translate(2048,96)">
			<rect class="hrbg"					x="64"	y="0"	width="448" height="4" />
			<rect class="bg"					x="64"	y="4"	width="448" height="92" />
			<image xlink:href="../logo/m.svg"	x="78"	y="18"	width="64"	height="64" />
			<image xlink:href="../logo/2.svg"	x="150"	y="18"	width="64"	height="64" />
			<text class="dir"					x="228"	y="60">Évenis–Éclesta</text>
		</g>
		<g id="m2_21_d" transform="translate(2560,96)">
			<rect class="hrbg"					x="0"	y="0"	width="448" height="4" />
			<rect class="bg"					x="0"	y="4"	width="448" height="92" />
			<image xlink:href="../logo/m.svg"	x="8"	y="18"	width="64"	height="64" />
			<image xlink:href="../logo/2.svg"	x="80"	y="18"	width="64"	height="64" />
			<text class="dir"					x="158"	y="60">Évenis–Éclesta</text>
		</g>
		<!-- Ligne de métro 3 -->
		<g id="m3_dir" transform="translate(0,192)">
			<rect class="hrbg"					x="64"	y="0"	width="448" height="4" />
			<rect class="bg"					x="64"	y="4"	width="448" height="92" />
			<image xlink:href="../logo/m.svg"	x="78"	y="18"	width="64"	height="64" />
			<image xlink:href="../logo/3.svg"	x="150"	y="18"	width="64"	height="64" />
			<text class="dir"					x="228"	y="45">Gléry</text>
			<text class="dir"					x="228"	y="75">Tolbrok</text>
		</g>
		<g id="m3_dir_d" transform="translate(512,192)">
			<rect class="hrbg"					x="0"	y="0"	width="448" height="4" />
			<rect class="bg"					x="0"	y="4"	width="448" height="92" />
			<image xlink:href="../logo/m.svg"	x="8"	y="18"	width="64"	height="64" />
			<image xlink:href="../logo/3.svg"	x="80"	y="18"	width="64"	height="64" />
			<text class="dir"					x="158"	y="45">Gléry</text>
			<text class="dir"					x="158"	y="75">Tolbrok</text>
		</g>
		<g id="m3_32" transform="translate(1024,192)">
			<rect class="hrbg"					x="64"	y="0"	width="448" height="4" />
			<rect class="bg"					x="64"	y="4"	width="448" height="92" />
			<image xlink:href="../logo/m.svg"	x="78"	y="18"	width="64"	height="64" />
			<image xlink:href="../logo/3.svg"	x="150"	y="18"	width="64"	height="64" />
			<text class="dir"					x="228"	y="60">Gléry</text>
		</g>
		<g id="m3_32_d" transform="translate(1536,192)">
			<rect class="hrbg"					x="0"	y="0"	width="448" height="4" />
			<rect class="bg"					x="0"	y="4"	width="448" height="92" />
			<image xlink:href="../logo/m.svg"	x="8"	y="18"	width="64"	height="64" />
			<image xlink:href="../logo/3.svg"	x="80"	y="18"	width="64"	height="64" />
			<text class="dir"					x="158"	y="60">Gléry</text>
		</g>
		<g id="m3_31" transform="translate(2048,192)">
			<rect class="hrbg"					x="64"	y="0"	width="448" height="4" />
			<rect class="bg"					x="64"	y="4"	width="448" height="92" />
			<image xlink:href="../logo/m.svg"	x="78"	y="18"	width="64"	height="64" />
			<image xlink:href="../logo/3.svg"	x="150"	y="18"	width="64"	height="64" />
			<text class="dir"					x="228"	y="60">Tolbrok</text>
		</g>
		<g id="m3_31_d" transform="translate(2560,192)">
			<rect class="hrbg"					x="0"	y="0"	width="448" height="4" />
			<rect class="bg"					x="0"	y="4"	width="448" height="92" />
			<image xlink:href="../logo/m.svg"	x="8"	y="18"	width="64"	height="64" />
			<image xlink:href="../logo/3.svg"	x="80"	y="18"	width="64"	height="64" />
			<text class="dir"					x="158"	y="60">Tolbrok</text>
		</g>
		<!-- Ligne de métro 4 -->
		<g id="m4_dir" transform="translate(0,288)">
			<rect class="hrbg"					x="64"	y="0"	width="448" height="4" />
			<rect class="bg"					x="64"	y="4"	width="448" height="92" />
			<image xlink:href="../logo/m.svg"	x="78"	y="18"	width="64"	height="64" />
			<image xlink:href="../logo/4.svg"	x="150"	y="18"	width="64"	height="64" />
			<text class="dir"					x="228"	y="45">Pieuze-en-Sulûm</text>
			<text class="dir"					x="228"	y="75">Tilia</text>
		</g>
		<g id="m4_dir_d" transform="translate(512,288)">
			<rect class="hrbg"					x="0"	y="0"	width="448" height="4" />
			<rect class="bg"					x="0"	y="4"	width="448" height="92" />
			<image xlink:href="../logo/m.svg"	x="8"	y="18"	width="64"	height="64" />
			<image xlink:href="../logo/4.svg"	x="80"	y="18"	width="64"	height="64" />
			<text class="dir"					x="158"	y="45">Pieuze-en-Sulûm</text>
			<text class="dir"					x="158"	y="75">Tilia</text>
		</g>
		<g id="m4_42" transform="translate(1024,288)">
			<rect class="hrbg"					x="64"	y="0"	width="448" height="4" />
			<rect class="bg"					x="64"	y="4"	width="448" height="92" />
			<image xlink:href="../logo/m.svg"	x="78"	y="18"	width="64"	height="64" />
			<image xlink:href="../logo/4.svg"	x="150"	y="18"	width="64"	height="64" />
			<text class="dir"					x="228"	y="60">Pieuze-en-Sulûm</text>
		</g>
		<g id="m4_42_d" transform="translate(1536,288)">
			<rect class="hrbg"					x="0"	y="0"	width="448" height="4" />
			<rect class="bg"					x="0"	y="4"	width="448" height="92" />
			<image xlink:href="../logo/m.svg"	x="8"	y="18"	width="64"	height="64" />
			<image xlink:href="../logo/4.svg"	x="80"	y="18"	width="64"	height="64" />
			<text class="dir"					x="158"	y="60">Pieuze-en-Sulûm</text>
		</g>
		<g id="m4_41" transform="translate(2048,288)">
			<rect class="hrbg"					x="64"	y="0"	width="448" height="4" />
			<rect class="bg"					x="64"	y="4"	width="448" height="92" />
			<image xlink:href="../logo/m.svg"	x="78"	y="18"	width="64"	height="64" />
			<image xlink:href="../logo/4.svg"	x="150"	y="18"	width="64"	height="64" />
			<text class="dir"					x="228"	y="60">Tilia</text>
		</g>
		<g id="m4_41_d" transform="translate(2560,288)">
			<rect class="hrbg"					x="0"	y="0"	width="448" height="4" />
			<rect class="bg"					x="0"	y="4"	width="448" height="92" />
			<image xlink:href="../logo/m.svg"	x="8"	y="18"	width="64"	height="64" />
			<image xlink:href="../logo/4.svg"	x="80"	y="18"	width="64"	height="64" />
			<text class="dir"					x="158"	y="60">Tilia</text>
		</g>
		<!-- Ligne de métro 5a -->
		<g id="m5a_dir" transform="translate(0,384)">
			<rect class="hrbg"					x="64"	y="0"	width="448" height="4" />
			<rect class="bg"					x="64"	y="4"	width="448" height="92" />
			<image xlink:href="../logo/m.svg"	x="78"	y="18"	width="64"	height="64" />
			<image xlink:href="../logo/5a.svg"	x="150"	y="18"	width="64"	height="64" />
			<text class="dir"					x="228"	y="45">Touissy</text>
			<text class="dir"					x="228"	y="75">Asvaard–Rudelieu</text>
		</g>
		<g id="m5a_dir_d" transform="translate(512,384)">
			<rect class="hrbg"					x="0"	y="0"	width="448" height="4" />
			<rect class="bg"					x="0"	y="4"	width="448" height="92" />
			<image xlink:href="../logo/m.svg"	x="8"	y="18"	width="64"	height="64" />
			<image xlink:href="../logo/5a.svg"	x="80"	y="18"	width="64"	height="64" />
			<text class="dir"					x="158"	y="45">Touissy</text>
			<text class="dir"					x="158"	y="75">Asvaard–Rudelieu</text>
		</g>
		<g id="m5a_52" transform="translate(1024,384)">
			<rect class="hrbg"					x="64"	y="0"	width="448" height="4" />
			<rect class="bg"					x="64"	y="4"	width="448" height="92" />
			<image xlink:href="../logo/m.svg"	x="78"	y="18"	width="64"	height="64" />
			<image xlink:href="../logo/5a.svg"	x="150"	y="18"	width="64"	height="64" />
			<text class="dir"					x="228"	y="60">Touissy</text>
		</g>
		<g id="m5a_52_d" transform="translate(1536,384)">
			<rect class="hrbg"					x="0"	y="0"	width="448" height="4" />
			<rect class="bg"					x="0"	y="4"	width="448" height="92" />
			<image xlink:href="../logo/m.svg"	x="8"	y="18"	width="64"	height="64" />
			<image xlink:href="../logo/5a.svg"	x="80"	y="18"	width="64"	height="64" />
			<text class="dir"					x="158"	y="60">Touissy</text>
		</g>
		<g id="m5a_51" transform="translate(2048,384)">
			<rect class="hrbg"					x="64"	y="0"	width="448" height="4" />
			<rect class="bg"					x="64"	y="4"	width="448" height="92" />
			<image xlink:href="../logo/m.svg"	x="78"	y="18"	width="64"	height="64" />
			<image xlink:href="../logo/5a.svg"	x="150"	y="18"	width="64"	height="64" />
			<text class="dir"					x="228"	y="60">Asvaard–Rudelieu</text>
		</g>
		<g id="m5a_51_d" transform="translate(2560,384)">
			<rect class="hrbg"					x="0"	y="0"	width="448" height="4" />
			<rect class="bg"					x="0"	y="4"	width="448" height="92" />
			<image xlink:href="../logo/m.svg"	x="8"	y="18"	width="64"	height="64" />
			<image xlink:href="../logo/5a.svg"	x="80"	y="18"	width="64"	height="64" />
			<text class="dir"					x="158"	y="60">Asvaard–Rudelieu</text>
		</g>
		<!-- Ligne de métro 5b -->
		<g id="m5b_dir" transform="translate(0,480)">
			<rect class="hrbg"					x="64"	y="0"	width="448" height="4" />
			<rect class="bg"					x="64"	y="4"	width="448" height="92" />
			<image xlink:href="../logo/m.svg"	x="78"	y="18"	width="64"	height="64" />
			<image xlink:href="../logo/5b.svg"	x="150"	y="18"	width="64"	height="64" />
			<text class="dir"					x="228"	y="45">Dorlinor</text>
			<text class="dir"					x="228"	y="75">Villonne</text>
		</g>
		<g id="m5b_dir_d" transform="translate(512,480)">
			<rect class="hrbg"					x="0"	y="0"	width="448" height="4" />
			<rect class="bg"					x="0"	y="4"	width="448" height="92" />
			<image xlink:href="../logo/m.svg"	x="8"	y="18"	width="64"	height="64" />
			<image xlink:href="../logo/5b.svg"	x="80"	y="18"	width="64"	height="64" />
			<text class="dir"					x="158"	y="45">Dorlinor</text>
			<text class="dir"					x="158"	y="75">Villonne</text>
		</g>
		<g id="m5b_56" transform="translate(1024,480)">
			<rect class="hrbg"					x="64"	y="0"	width="448" height="4" />
			<rect class="bg"					x="64"	y="4"	width="448" height="92" />
			<image xlink:href="../logo/m.svg"	x="78"	y="18"	width="64"	height="64" />
			<image xlink:href="../logo/5b.svg"	x="150"	y="18"	width="64"	height="64" />
			<text class="dir"					x="228"	y="60">Dorlinor</text>
		</g>
		<g id="m5b_56_d" transform="translate(1536,480)">
			<rect class="hrbg"					x="0"	y="0"	width="448" height="4" />
			<rect class="bg"					x="0"	y="4"	width="448" height="92" />
			<image xlink:href="../logo/m.svg"	x="8"	y="18"	width="64"	height="64" />
			<image xlink:href="../logo/5b.svg"	x="80"	y="18"	width="64"	height="64" />
			<text class="dir"					x="158"	y="60">Dorlinor</text>
		</g>
		<g id="m5b_55" transform="translate(2048,480)">
			<rect class="hrbg"					x="64"	y="0"	width="448" height="4" />
			<rect class="bg"					x="64"	y="4"	width="448" height="92" />
			<image xlink:href="../logo/m.svg"	x="78"	y="18"	width="64"	height="64" />
			<image xlink:href="../logo/5b.svg"	x="150"	y="18"	width="64"	height="64" />
			<text class="dir"					x="228"	y="60">Villonne</text>
		</g>
		<g id="m5b_55_d" transform="translate(2560,480)">
			<rect class="hrbg"					x="0"	y="0"	width="448" height="4" />
			<rect class="bg"					x="0"	y="4"	width="448" height="92" />
			<image xlink:href="../logo/m.svg"	x="8"	y="18"	width="64"	height="64" />
			<image xlink:href="../logo/5b.svg"	x="80"	y="18"	width="64"	height="64" />
			<text class="dir"					x="158"	y="60">Villonne</text>
		</g>
		<!-- Ligne de métro 6 -->
		<g id="m6_dir" transform="translate(0,576)">
			<rect class="hrbg"					x="64"	y="0"	width="448" height="4" />
			<rect class="bg"					x="64"	y="4"	width="448" height="92" />
			<image xlink:href="../logo/m.svg"	x="78"	y="18"	width="64"	height="64" />
			<image xlink:href="../logo/6.svg"	x="150"	y="18"	width="64"	height="64" />
			<text class="dir"					x="228"	y="45">Fultèz-en-Sulûm</text>
			<text class="dir"					x="228"	y="75">Midès</text>
		</g>
		<g id="m6_dir_d" transform="translate(512,576)">
			<rect class="hrbg"					x="0"	y="0"	width="448" height="4" />
			<rect class="bg"					x="0"	y="4"	width="448" height="92" />
			<image xlink:href="../logo/m.svg"	x="8"	y="18"	width="64"	height="64" />
			<image xlink:href="../logo/6.svg"	x="80"	y="18"	width="64"	height="64" />
			<text class="dir"					x="158"	y="45">Fultèz-en-Sulûm</text>
			<text class="dir"					x="158"	y="75">Midès</text>
		</g>
		<g id="m6_61" transform="translate(1024,576)">
			<rect class="hrbg"					x="64"	y="0"	width="448" height="4" />
			<rect class="bg"					x="64"	y="4"	width="448" height="92" />
			<image xlink:href="../logo/m.svg"	x="78"	y="18"	width="64"	height="64" />
			<image xlink:href="../logo/6.svg"	x="150"	y="18"	width="64"	height="64" />
			<text class="dir"					x="228"	y="60">Fultèz-en-Sulûm</text>
		</g>
		<g id="m6_61_d" transform="translate(1536,576)">
			<rect class="hrbg"					x="0"	y="0"	width="448" height="4" />
			<rect class="bg"					x="0"	y="4"	width="448" height="92" />
			<image xlink:href="../logo/m.svg"	x="8"	y="18"	width="64"	height="64" />
			<image xlink:href="../logo/6.svg"	x="80"	y="18"	width="64"	height="64" />
			<text class="dir"					x="158"	y="60">Fultèz-en-Sulûm</text>
		</g>
		<g id="m6_62" transform="translate(2048,576)">
			<rect class="hrbg"					x="64"	y="0"	width="448" height="4" />
			<rect class="bg"					x="64"	y="4"	width="448" height="92" />
			<image xlink:href="../logo/m.svg"	x="78"	y="18"	width="64"	height="64" />
			<image xlink:href="../logo/6.svg"	x="150"	y="18"	width="64"	height="64" />
			<text class="dir"					x="228"	y="60">Midès</text>
		</g>
		<g id="m6_62_d" transform="translate(2560,576)">
			<rect class="hrbg"					x="0"	y="0"	width="448" height="4" />
			<rect class="bg"					x="0"	y="4"	width="448" height="92" />
			<image xlink:href="../logo/m.svg"	x="8"	y="18"	width="64"	height="64" />
			<image xlink:href="../logo/6.svg"	x="80"	y="18"	width="64"	height="64" />
			<text class="dir"					x="158"	y="60">Midès</text>
		</g>
		<!-- Ligne de métro 7 -->
		<g id="m7_dir" transform="translate(0,672)">
			<rect class="hrbg"					x="64"	y="0"	width="448" height="4" />
			<rect class="bg"					x="64"	y="4"	width="448" height="92" />
			<image xlink:href="../logo/m.svg"	x="78"	y="18"	width="64"	height="64" />
			<image xlink:href="../logo/7.svg"	x="150"	y="18"	width="64"	height="64" />
			<text class="dir"					x="228"	y="45">Évenis–Tamlyn</text>
			<text class="dir"					x="228"	y="75">Chassy-sur-Flumine</text>
		</g>
		<g id="m7_dir_d" transform="translate(512,672)">
			<rect class="hrbg"					x="0"	y="0"	width="448" height="4" />
			<rect class="bg"					x="0"	y="4"	width="448" height="92" />
			<image xlink:href="../logo/m.svg"	x="8"	y="18"	width="64"	height="64" />
			<image xlink:href="../logo/7.svg"	x="80"	y="18"	width="64"	height="64" />
			<text class="dir"					x="158"	y="45">Évenis–Tamlyn</text>
			<text class="dir"					x="158"	y="75">Chassy-sur-Flumine</text>
		</g>
		<g id="m7_72" transform="translate(1024,672)">
			<rect class="hrbg"					x="64"	y="0"	width="448" height="4" />
			<rect class="bg"					x="64"	y="4"	width="448" height="92" />
			<image xlink:href="../logo/m.svg"	x="78"	y="18"	width="64"	height="64" />
			<image xlink:href="../logo/7.svg"	x="150"	y="18"	width="64"	height="64" />
			<text class="dir"					x="228"	y="60">Évenis–Tamlyn</text>
		</g>
		<g id="m7_72_d" transform="translate(1536,672)">
			<rect class="hrbg"					x="0"	y="0"	width="448" height="4" />
			<rect class="bg"					x="0"	y="4"	width="448" height="92" />
			<image xlink:href="../logo/m.svg"	x="8"	y="18"	width="64"	height="64" />
			<image xlink:href="../logo/7.svg"	x="80"	y="18"	width="64"	height="64" />
			<text class="dir"					x="158"	y="60">Évenis–Tamlyn</text>
		</g>
		<g id="m7_71" transform="translate(2048,672)">
			<rect class="hrbg"					x="64"	y="0"	width="448" height="4" />
			<rect class="bg"					x="64"	y="4"	width="448" height="92" />
			<image xlink:href="../logo/m.svg"	x="78"	y="18"	width="64"	height="64" />
			<image xlink:href="../logo/7.svg"	x="150"	y="18"	width="64"	height="64" />
			<text class="dir"					x="228"	y="60">Chassy-sur-Flumine</text>
		</g>
		<g id="m7_71_d" transform="translate(2560,672)">
			<rect class="hrbg"					x="0"	y="0"	width="448" height="4" />
			<rect class="bg"					x="0"	y="4"	width="448" height="92" />
			<image xlink:href="../logo/m.svg"	x="8"	y="18"	width="64"	height="64" />
			<image xlink:href="../logo/7.svg"	x="80"	y="18"	width="64"	height="64" />
			<text class="dir"					x="158"	y="60">Chassy-sur-Flumine</text>
		</g>
		<!-- Ligne de métro 7b -->
		<g id="m7b_dir" transform="translate(0,768)">
			<rect class="hrbg"					x="64"	y="0"	width="448" height="4" />
			<rect class="bg"					x="64"	y="4"	width="448" height="92" />
			<image xlink:href="../logo/m.svg"	x="78"	y="18"	width="64"	height="64" />
			<image xlink:href="../logo/7b.svg"	x="150"	y="18"	width="64"	height="64" />
			<text class="dir"					x="228"	y="45">Quatre Chemins</text>
			<text class="dir"					x="228"	y="75">Litoréa</text>
		</g>
		<g id="m7b_dir_d" transform="translate(512,768)">
			<rect class="hrbg"					x="0"	y="0"	width="448" height="4" />
			<rect class="bg"					x="0"	y="4"	width="448" height="92" />
			<image xlink:href="../logo/m.svg"	x="8"	y="18"	width="64"	height="64" />
			<image xlink:href="../logo/7b.svg"	x="80"	y="18"	width="64"	height="64" />
			<text class="dir"					x="158"	y="45">Quatre Chemins</text>
			<text class="dir"					x="158"	y="75">Litoréa</text>
		</g>
		<g id="m7b_74" transform="translate(1024,768)">
			<rect class="hrbg"					x="64"	y="0"	width="448" height="4" />
			<rect class="bg"					x="64"	y="4"	width="448" height="92" />
			<image xlink:href="../logo/m.svg"	x="78"	y="18"	width="64"	height="64" />
			<image xlink:href="../logo/7b.svg"	x="150"	y="18"	width="64"	height="64" />
			<text class="dir"					x="228"	y="60">Quatre Chemins</text>
		</g>
		<g id="m7b_74_d" transform="translate(1536,768)">
			<rect class="hrbg"					x="0"	y="0"	width="448" height="4" />
			<rect class="bg"					x="0"	y="4"	width="448" height="92" />
			<image xlink:href="../logo/m.svg"	x="8"	y="18"	width="64"	height="64" />
			<image xlink:href="../logo/7b.svg"	x="80"	y="18"	width="64"	height="64" />
			<text class="dir"					x="158"	y="60">Quatre Chemins</text>
		</g>
		<g id="m7b_73" transform="translate(2048,768)">
			<rect class="hrbg"					x="64"	y="0"	width="448" height="4" />
			<rect class="bg"					x="64"	y="4"	width="448" height="92" />
			<image xlink:href="../logo/m.svg"	x="78"	y="18"	width="64"	height="64" />
			<image xlink:href="../logo/7b.svg"	x="150"	y="18"	width="64"	height="64" />
			<text class="dir"					x="228"	y="60">Litoréa</text>
		</g>
		<g id="m7b_73_d" transform="translate(2560,768)">
			<rect class="hrbg"					x="0"	y="0"	width="448" height="4" />
			<rect class="bg"					x="0"	y="4"	width="448" height="92" />
			<image xlink:href="../logo/m.svg"	x="8"	y="18"	width="64"	height="64" />
			<image xlink:href="../logo/7b.svg"	x="80"	y="18"	width="64"	height="64" />
			<text class="dir"					x="158"	y="60">Litoréa</text>
		</g>
		<!-- Ligne de métro 8 -->
		<g id="m8_dir" transform="translate(0,864)">
			<rect class="hrbg"					x="64"	y="0"	width="448" height="4" />
			<rect class="bg"					x="64"	y="4"	width="448" height="92" />
			<image xlink:href="../logo/m.svg"	x="78"	y="18"	width="64"	height="64" />
			<image xlink:href="../logo/8.svg"	x="150"	y="18"	width="64"	height="64" />
			<text class="dir"					x="228"	y="45">Procyon–Université</text>
			<text class="dir"					x="228"	y="75">Géorlie</text>
		</g>
		<g id="m8_dir_d" transform="translate(512,864)">
			<rect class="hrbg"					x="0"	y="0"	width="448" height="4" />
			<rect class="bg"					x="0"	y="4"	width="448" height="92" />
			<image xlink:href="../logo/m.svg"	x="8"	y="18"	width="64"	height="64" />
			<image xlink:href="../logo/8.svg"	x="80"	y="18"	width="64"	height="64" />
			<text class="dir"					x="158"	y="45">Procyon–Université</text>
			<text class="dir"					x="158"	y="75">Géorlie</text>
		</g>
		<g id="m8_81" transform="translate(1024,864)">
			<rect class="hrbg"					x="64"	y="0"	width="448" height="4" />
			<rect class="bg"					x="64"	y="4"	width="448" height="92" />
			<image xlink:href="../logo/m.svg"	x="78"	y="18"	width="64"	height="64" />
			<image xlink:href="../logo/8.svg"	x="150"	y="18"	width="64"	height="64" />
			<text class="dir"					x="228"	y="60">Procyon–Université</text>
		</g>
		<g id="m8_81_d" transform="translate(1536,864)">
			<rect class="hrbg"					x="0"	y="0"	width="448" height="4" />
			<rect class="bg"					x="0"	y="4"	width="448" height="92" />
			<image xlink:href="../logo/m.svg"	x="8"	y="18"	width="64"	height="64" />
			<image xlink:href="../logo/8.svg"	x="80"	y="18"	width="64"	height="64" />
			<text class="dir"					x="158"	y="60">Procyon–Université</text>
		</g>
		<g id="m8_82" transform="translate(2048,864)">
			<rect class="hrbg"					x="64"	y="0"	width="448" height="4" />
			<rect class="bg"					x="64"	y="4"	width="448" height="92" />
			<image xlink:href="../logo/m.svg"	x="78"	y="18"	width="64"	height="64" />
			<image xlink:href="../logo/8.svg"	x="150"	y="18"	width="64"	height="64" />
			<text class="dir"					x="228"	y="60">Géorlie</text>
		</g>
		<g id="m8_82_d" transform="translate(2560,864)">
			<rect class="hrbg"					x="0"	y="0"	width="448" height="4" />
			<rect class="bg"					x="0"	y="4"	width="448" height="92" />
			<image xlink:href="../logo/m.svg"	x="8"	y="18"	width="64"	height="64" />
			<image xlink:href="../logo/8.svg"	x="80"	y="18"	width="64"	height="64" />
			<text class="dir"					x="158"	y="60">Géorlie</text>
		</g>
		<!-- Ligne de métro 8b -->
		<g id="m8b_dir" transform="translate(0,960)">
			<rect class="hrbg"					x="64"	y="0"	width="448" height="4" />
			<rect class="bg"					x="64"	y="4"	width="448" height="92" />
			<image xlink:href="../logo/m.svg"	x="78"	y="18"	width="64"	height="64" />
			<image xlink:href="../logo/8b.svg"	x="150"	y="18"	width="64"	height="64" />
			<text class="dir"					x="228"	y="45">Le Relais</text>
			<text class="dir"					x="228"	y="75">Frambourg–Ternelieu</text>
		</g>
		<g id="m8b_dir_d" transform="translate(512,960)">
			<rect class="hrbg"					x="0"	y="0"	width="448" height="4" />
			<rect class="bg"					x="0"	y="4"	width="448" height="92" />
			<image xlink:href="../logo/m.svg"	x="8"	y="18"	width="64"	height="64" />
			<image xlink:href="../logo/8b.svg"	x="80"	y="18"	width="64"	height="64" />
			<text class="dir"					x="158"	y="45">Le Relais</text>
			<text class="dir"					x="158"	y="75">Frambourg–Ternelieu</text>
		</g>
		<g id="m8b_84" transform="translate(1024,960)">
			<rect class="hrbg"					x="64"	y="0"	width="448" height="4" />
			<rect class="bg"					x="64"	y="4"	width="448" height="92" />
			<image xlink:href="../logo/m.svg"	x="78"	y="18"	width="64"	height="64" />
			<image xlink:href="../logo/8b.svg"	x="150"	y="18"	width="64"	height="64" />
			<text class="dir"					x="228"	y="60">Le Relais</text>
		</g>
		<g id="m8b_84_d" transform="translate(1536,960)">
			<rect class="hrbg"					x="0"	y="0"	width="448" height="4" />
			<rect class="bg"					x="0"	y="4"	width="448" height="92" />
			<image xlink:href="../logo/m.svg"	x="8"	y="18"	width="64"	height="64" />
			<image xlink:href="../logo/8b.svg"	x="80"	y="18"	width="64"	height="64" />
			<text class="dir"					x="158"	y="60">Le Relais</text>
		</g>
		<g id="m8b_83" transform="translate(2048,960)">
			<rect class="hrbg"					x="64"	y="0"	width="448" height="4" />
			<rect class="bg"					x="64"	y="4"	width="448" height="92" />
			<image xlink:href="../logo/m.svg"	x="78"	y="18"	width="64"	height="64" />
			<image xlink:href="../logo/8b.svg"	x="150"	y="18"	width="64"	height="64" />
			<text class="dir"					x="228"	y="60">Frambourg–Ternelieu</text>
		</g>
		<g id="m8b_83_d" transform="translate(2560,960)">
			<rect class="hrbg"					x="0"	y="0"	width="448" height="4" />
			<rect class="bg"					x="0"	y="4"	width="448" height="92" />
			<image xlink:href="../logo/m.svg"	x="8"	y="18"	width="64"	height="64" />
			<image xlink:href="../logo/8b.svg"	x="80"	y="18"	width="64"	height="64" />
			<text class="dir"					x="158"	y="60">Frambourg–Ternelieu</text>
		</g>
		<!-- Ligne de métro 9 -->
		<g id="m9_dir" transform="translate(0,1056)">
			<rect class="hrbg"					x="64"	y="0"	width="448" height="4" />
			<rect class="bg"					x="64"	y="4"	width="448" height="92" />
			<image xlink:href="../logo/m.svg"	x="78"	y="18"	width="64"	height="64" />
			<image xlink:href="../logo/9.svg"	x="150"	y="18"	width="64"	height="64" />
			<text class="dir"					x="228"	y="45">Chamborion</text>
			<text class="dir"					x="228"	y="75">La Pogne-en-Ardence</text>
		</g>
		<g id="m9_dir_d" transform="translate(512,1056)">
			<rect class="hrbg"					x="0"	y="0"	width="448" height="4" />
			<rect class="bg"					x="0"	y="4"	width="448" height="92" />
			<image xlink:href="../logo/m.svg"	x="8"	y="18"	width="64"	height="64" />
			<image xlink:href="../logo/9.svg"	x="80"	y="18"	width="64"	height="64" />
			<text class="dir"					x="158"	y="45">Chamborion</text>
			<text class="dir"					x="158"	y="75">La Pogne-en-Ardence</text>
		</g>
		<g id="m9_91" transform="translate(1024,1056)">
			<rect class="hrbg"					x="64"	y="0"	width="448" height="4" />
			<rect class="bg"					x="64"	y="4"	width="448" height="92" />
			<image xlink:href="../logo/m.svg"	x="78"	y="18"	width="64"	height="64" />
			<image xlink:href="../logo/9.svg"	x="150"	y="18"	width="64"	height="64" />
			<text class="dir"					x="228"	y="60">Chamborion</text>
		</g>
		<g id="m9_91_d" transform="translate(1536,1056)">
			<rect class="hrbg"					x="0"	y="0"	width="448" height="4" />
			<rect class="bg"					x="0"	y="4"	width="448" height="92" />
			<image xlink:href="../logo/m.svg"	x="8"	y="18"	width="64"	height="64" />
			<image xlink:href="../logo/9.svg"	x="80"	y="18"	width="64"	height="64" />
			<text class="dir"					x="158"	y="60">Chamborion</text>
		</g>
		<g id="m9_92" transform="translate(2048,1056)">
			<rect class="hrbg"					x="64"	y="0"	width="448" height="4" />
			<rect class="bg"					x="64"	y="4"	width="448" height="92" />
			<image xlink:href="../logo/m.svg"	x="78"	y="18"	width="64"	height="64" />
			<image xlink:href="../logo/9.svg"	x="150"	y="18"	width="64"	height="64" />
			<text class="dir"					x="228"	y="60">La Pogne-en-Ardence</text>
		</g>
		<g id="m9_92_d" transform="translate(2560,1056)">
			<rect class="hrbg"					x="0"	y="0"	width="448" height="4" />
			<rect class="bg"					x="0"	y="4"	width="448" height="92" />
			<image xlink:href="../logo/m.svg"	x="8"	y="18"	width="64"	height="64" />
			<image xlink:href="../logo/9.svg"	x="80"	y="18"	width="64"	height="64" />
			<text class="dir"					x="158"	y="60">La Pogne-en-Ardence</text>
		</g>
		<!-- Ligne de métro 10 -->
		<g id="m10_dir" transform="translate(0,1152)">
			<rect class="hrbg"					x="64"	y="0"	width="448" height="4" />
			<rect class="bg"					x="64"	y="4"	width="448" height="92" />
			<image xlink:href="../logo/m.svg"	x="78"	y="18"	width="64"	height="64" />
			<image xlink:href="../logo/10.svg"	x="150"	y="18"	width="64"	height="64" />
			<text class="dir"					x="228"	y="45">Vaillebourg</text>
			<text class="dir"					x="228"	y="75">Poudriole</text>
		</g>
		<g id="m10_dir_d" transform="translate(512,1152)">
			<rect class="hrbg"					x="0"	y="0"	width="448" height="4" />
			<rect class="bg"					x="0"	y="4"	width="448" height="92" />
			<image xlink:href="../logo/m.svg"	x="8"	y="18"	width="64"	height="64" />
			<image xlink:href="../logo/10.svg"	x="80"	y="18"	width="64"	height="64" />
			<text class="dir"					x="158"	y="45">Vaillebourg</text>
			<text class="dir"					x="158"	y="75">Poudriole</text>
		</g>
		<g id="m10_101" transform="translate(1024,1152)">
			<rect class="hrbg"					x="64"	y="0"	width="448" height="4" />
			<rect class="bg"					x="64"	y="4"	width="448" height="92" />
			<image xlink:href="../logo/m.svg"	x="78"	y="18"	width="64"	height="64" />
			<image xlink:href="../logo/10.svg"	x="150"	y="18"	width="64"	height="64" />
			<text class="dir"					x="228"	y="60">Vaillebourg</text>
		</g>
		<g id="m10_101_d" transform="translate(1536,1152)">
			<rect class="hrbg"					x="0"	y="0"	width="448" height="4" />
			<rect class="bg"					x="0"	y="4"	width="448" height="92" />
			<image xlink:href="../logo/m.svg"	x="8"	y="18"	width="64"	height="64" />
			<image xlink:href="../logo/10.svg"	x="80"	y="18"	width="64"	height="64" />
			<text class="dir"					x="158"	y="60">Vaillebourg</text>
		</g>
		<g id="m10_102" transform="translate(2048,1152)">
			<rect class="hrbg"					x="64"	y="0"	width="448" height="4" />
			<rect class="bg"					x="64"	y="4"	width="448" height="92" />
			<image xlink:href="../logo/m.svg"	x="78"	y="18"	width="64"	height="64" />
			<image xlink:href="../logo/10.svg"	x="150"	y="18"	width="64"	height="64" />
			<text class="dir"					x="228"	y="60">Poudriole</text>
		</g>
		<g id="m10_102_d" transform="translate(2560,1152)">
			<rect class="hrbg"					x="0"	y="0"	width="448" height="4" />
			<rect class="bg"					x="0"	y="4"	width="448" height="92" />
			<image xlink:href="../logo/m.svg"	x="8"	y="18"	width="64"	height="64" />
			<image xlink:href="../logo/10.svg"	x="80"	y="18"	width="64"	height="64" />
			<text class="dir"					x="158"	y="60">Poudriole</text>
		</g>
		<!-- Ligne de métro 11 -->
		<g id="m11_dir" transform="translate(0,1248)">
			<rect class="hrbg"					x="64"	y="0"	width="448" height="4" />
			<rect class="bg"					x="64"	y="4"	width="448" height="92" />
			<image xlink:href="../logo/m.svg"	x="78"	y="18"	width="64"	height="64" />
			<image xlink:href="../logo/11.svg"	x="150"	y="18"	width="64"	height="64" />
			<text class="dir"					x="228"	y="45">Évernay-l'Aumône</text>
			<text class="dir"					x="228"	y="75">Croassin-le-Désert</text>
		</g>
		<g id="m11_dir_d" transform="translate(512,1248)">
			<rect class="hrbg"					x="0"	y="0"	width="448" height="4" />
			<rect class="bg"					x="0"	y="4"	width="448" height="92" />
			<image xlink:href="../logo/m.svg"	x="8"	y="18"	width="64"	height="64" />
			<image xlink:href="../logo/11.svg"	x="80"	y="18"	width="64"	height="64" />
			<text class="dir"					x="158"	y="45">Évernay-l'Aumône</text>
			<text class="dir"					x="158"	y="75">Croassin-le-Désert</text>
		</g>
		<g id="m11_111" transform="translate(1024,1248)">
			<rect class="hrbg"					x="64"	y="0"	width="448" height="4" />
			<rect class="bg"					x="64"	y="4"	width="448" height="92" />
			<image xlink:href="../logo/m.svg"	x="78"	y="18"	width="64"	height="64" />
			<image xlink:href="../logo/11.svg"	x="150"	y="18"	width="64"	height="64" />
			<text class="dir"					x="228"	y="60">Évernay-l'Aumône</text>
		</g>
		<g id="m11_111_d" transform="translate(1536,1248)">
			<rect class="hrbg"					x="0"	y="0"	width="448" height="4" />
			<rect class="bg"					x="0"	y="4"	width="448" height="92" />
			<image xlink:href="../logo/m.svg"	x="8"	y="18"	width="64"	height="64" />
			<image xlink:href="../logo/11.svg"	x="80"	y="18"	width="64"	height="64" />
			<text class="dir"					x="158"	y="60">Évernay-l'Aumône</text>
		</g>
		<g id="m11_112" transform="translate(2048,1248)">
			<rect class="hrbg"					x="64"	y="0"	width="448" height="4" />
			<rect class="bg"					x="64"	y="4"	width="448" height="92" />
			<image xlink:href="../logo/m.svg"	x="78"	y="18"	width="64"	height="64" />
			<image xlink:href="../logo/11.svg"	x="150"	y="18"	width="64"	height="64" />
			<text class="dir"					x="228"	y="60">Croassin-le-Désert</text>
		</g>
		<g id="m11_112_d" transform="translate(2560,1248)">
			<rect class="hrbg"					x="0"	y="0"	width="448" height="4" />
			<rect class="bg"					x="0"	y="4"	width="448" height="92" />
			<image xlink:href="../logo/m.svg"	x="8"	y="18"	width="64"	height="64" />
			<image xlink:href="../logo/11.svg"	x="80"	y="18"	width="64"	height="64" />
			<text class="dir"					x="158"	y="60">Croassin-le-Désert</text>
		</g>
		<!-- Ligne de métro 12 -->
		<g id="m12_dir" transform="translate(0,1344)">
			<rect class="hrbg"					x="64"	y="0"	width="448" height="4" />
			<rect class="bg"					x="64"	y="4"	width="448" height="92" />
			<image xlink:href="../logo/m.svg"	x="78"	y="18"	width="64"	height="64" />
			<image xlink:href="../logo/12.svg"	x="150"	y="18"	width="64"	height="64" />
			<text class="dir"					x="228"	y="45">Cyséal</text>
			<text class="dir"					x="228"	y="75">Paupéry • Gambergerie</text>
		</g>
		<g id="m12_dir_d" transform="translate(512,1344)">
			<rect class="hrbg"					x="0"	y="0"	width="448" height="4" />
			<rect class="bg"					x="0"	y="4"	width="448" height="92" />
			<image xlink:href="../logo/m.svg"	x="8"	y="18"	width="64"	height="64" />
			<image xlink:href="../logo/12.svg"	x="80"	y="18"	width="64"	height="64" />
			<text class="dir"					x="158"	y="45">Cyséal</text>
			<text class="dir"					x="158"	y="75">Paupéry • Gambergerie</text>
		</g>
		<g id="m12_121" transform="translate(1024,1344)">
			<rect class="hrbg"					x="64"	y="0"	width="448" height="4" />
			<rect class="bg"					x="64"	y="4"	width="448" height="92" />
			<image xlink:href="../logo/m.svg"	x="78"	y="18"	width="64"	height="64" />
			<image xlink:href="../logo/12.svg"	x="150"	y="18"	width="64"	height="64" />
			<text class="dir"					x="228"	y="60">Cyséal</text>
		</g>
		<g id="m12_121_d" transform="translate(1536,1344)">
			<rect class="hrbg"					x="0"	y="0"	width="448" height="4" />
			<rect class="bg"					x="0"	y="4"	width="448" height="92" />
			<image xlink:href="../logo/m.svg"	x="8"	y="18"	width="64"	height="64" />
			<image xlink:href="../logo/12.svg"	x="80"	y="18"	width="64"	height="64" />
			<text class="dir"					x="158"	y="60">Cyséal</text>
		</g>
		<g id="m12_122" transform="translate(2048,1344)">
			<rect class="hrbg"					x="64"	y="0"	width="448" height="4" />
			<rect class="bg"					x="64"	y="4"	width="448" height="92" />
			<image xlink:href="../logo/m.svg"	x="78"	y="18"	width="64"	height="64" />
			<image xlink:href="../logo/12.svg"	x="150"	y="18"	width="64"	height="64" />
			<text class="dir"					x="228"	y="60">Paupéry</text>
		</g>
		<g id="m12_122_d" transform="translate(2560,1344)">
			<rect class="hrbg"					x="0"	y="0"	width="448" height="4" />
			<rect class="bg"					x="0"	y="4"	width="448" height="92" />
			<image xlink:href="../logo/m.svg"	x="8"	y="18"	width="64"	height="64" />
			<image xlink:href="../logo/12.svg"	x="80"	y="18"	width="64"	height="64" />
			<text class="dir"					x="158"	y="60">Paupéry</text>
		</g>
		<g id="m12_123" transform="translate(3072,1440)">
			<rect class="hrbg"					x="64"	y="0"	width="448" height="4" />
			<rect class="bg"					x="64"	y="4"	width="448" height="92" />
			<image xlink:href="../logo/m.svg"	x="78"	y="18"	width="64"	height="64" />
			<image xlink:href="../logo/12.svg"	x="150"	y="18"	width="64"	height="64" />
			<text class="dir"					x="228"	y="60">La Gambergerie</text>
		</g>
		<g id="m12_123_d" transform="translate(3584,1440)">
			<rect class="hrbg"					x="0"	y="0"	width="448" height="4" />
			<rect class="bg"					x="0"	y="4"	width="448" height="92" />
			<image xlink:href="../logo/m.svg"	x="8"	y="18"	width="64"	height="64" />
			<image xlink:href="../logo/12.svg"	x="80"	y="18"	width="64"	height="64" />
			<text class="dir"					x="158"	y="60">La Gambergerie</text>
		</g>
		<g id="m12_121_122" transform="translate(0,1440)">
			<rect class="hrbg"					x="64"	y="0"	width="448" height="4" />
			<rect class="bg"					x="64"	y="4"	width="448" height="92" />
			<image xlink:href="../logo/m.svg"	x="78"	y="18"	width="64"	height="64" />
			<image xlink:href="../logo/12.svg"	x="150"	y="18"	width="64"	height="64" />
			<text class="dir"					x="228"	y="45">Cyséal</text>
			<text class="dir"					x="228"	y="75">Paupéry</text>
		</g>
		<g id="m12_121_122_d" transform="translate(512,1440)">
			<rect class="hrbg"					x="0"	y="0"	width="448" height="4" />
			<rect class="bg"					x="0"	y="4"	width="448" height="92" />
			<image xlink:href="../logo/m.svg"	x="8"	y="18"	width="64"	height="64" />
			<image xlink:href="../logo/12.svg"	x="80"	y="18"	width="64"	height="64" />
			<text class="dir"					x="158"	y="45">Cyséal</text>
			<text class="dir"					x="158"	y="75">Paupéry</text>
		</g>
		<g id="m12_121_123" transform="translate(1024,1440)">
			<rect class="hrbg"					x="64"	y="0"	width="448" height="4" />
			<rect class="bg"					x="64"	y="4"	width="448" height="92" />
			<image xlink:href="../logo/m.svg"	x="78"	y="18"	width="64"	height="64" />
			<image xlink:href="../logo/12.svg"	x="150"	y="18"	width="64"	height="64" />
			<text class="dir"					x="228"	y="45">Cyséal</text>
			<text class="dir"					x="228"	y="75">La Gambergerie</text>
		</g>
		<g id="m12_121_123_d" transform="translate(1536,1440)">
			<rect class="hrbg"					x="0"	y="0"	width="448" height="4" />
			<rect class="bg"					x="0"	y="4"	width="448" height="92" />
			<image xlink:href="../logo/m.svg"	x="8"	y="18"	width="64"	height="64" />
			<image xlink:href="../logo/12.svg"	x="80"	y="18"	width="64"	height="64" />
			<text class="dir"					x="158"	y="45">Cyséal</text>
			<text class="dir"					x="158"	y="75">La Gambergerie</text>
		</g>
		<g id="m12_122_123" transform="translate(2048,1440)">
			<rect class="hrbg"					x="64"	y="0"	width="448" height="4" />
			<rect class="bg"					x="64"	y="4"	width="448" height="92" />
			<image xlink:href="../logo/m.svg"	x="78"	y="18"	width="64"	height="64" />
			<image xlink:href="../logo/12.svg"	x="150"	y="18"	width="64"	height="64" />
			<text class="dir"					x="228"	y="45">Paupéry</text>
			<text class="dir"					x="228"	y="75">La Gambergerie</text>
		</g>
		<g id="m12_122_123_d" transform="translate(2560,1440)">
			<rect class="hrbg"					x="0"	y="0"	width="448" height="4" />
			<rect class="bg"					x="0"	y="4"	width="448" height="92" />
			<image xlink:href="../logo/m.svg"	x="8"	y="18"	width="64"	height="64" />
			<image xlink:href="../logo/12.svg"	x="80"	y="18"	width="64"	height="64" />
			<text class="dir"					x="158"	y="45">Paupéry</text>
			<text class="dir"					x="158"	y="75">La Gambergerie</text>
		</g>
		
		
		<!-- Ligne de câble A -->
		<g id="ca_dir" transform="translate(0,1728)">
			<rect class="hrbg"					x="64"	y="0"	width="448" height="4" />
			<rect class="bg"					x="64"	y="4"	width="448" height="92" />
			<image xlink:href="../logo/cable.svg" x="78" y="18"	width="64"	height="64" />
			<image xlink:href="../logo/ca.svg"	x="150"	y="18"	width="64"	height="64" />
			<text class="dir"					x="228"	y="45">Évrocq–Le Haut</text>
			<text class="dir"					x="228"	y="75">Évrocq–Sauvebonne</text>
		</g>
		<g id="ca_dir_d" transform="translate(512,1728)">
			<rect class="hrbg"					x="0"	y="0"	width="448" height="4" />
			<rect class="bg"					x="0"	y="4"	width="448" height="92" />
			<image xlink:href="../logo/cable.svg" x="8"	y="18"	width="64"	height="64" />
			<image xlink:href="../logo/ca.svg"	x="80"	y="18"	width="64"	height="64" />
			<text class="dir"					x="158"	y="45">Évrocq–Le Haut</text>
			<text class="dir"					x="158"	y="75">Évrocq–Sauvebonne</text>
		</g>
		<g id="ca_4011" transform="translate(1024,1728)">
			<rect class="hrbg"					x="64"	y="0"	width="448" height="4" />
			<rect class="bg"					x="64"	y="4"	width="448" height="92" />
			<image xlink:href="../logo/cable.svg" x="78" y="18"	width="64"	height="64" />
			<image xlink:href="../logo/ca.svg"	x="150"	y="18"	width="64"	height="64" />
			<text class="dir"					x="228"	y="60">Évrocq–Le Haut</text>
		</g>
		<g id="ca_4011_d" transform="translate(1536,1728)">
			<rect class="hrbg"					x="0"	y="0"	width="448" height="4" />
			<rect class="bg"					x="0"	y="4"	width="448" height="92" />
			<image xlink:href="../logo/cable.svg" x="8"	y="18"	width="64"	height="64" />
			<image xlink:href="../logo/ca.svg"	x="80"	y="18"	width="64"	height="64" />
			<text class="dir"					x="158"	y="60">Évrocq–Le Haut</text>
		</g>
		<g id="ca_4012" transform="translate(2048,1728)">
			<rect class="hrbg"					x="64"	y="0"	width="448" height="4" />
			<rect class="bg"					x="64"	y="4"	width="448" height="92" />
			<image xlink:href="../logo/cable.svg" x="78" y="18"	width="64"	height="64" />
			<image xlink:href="../logo/ca.svg"	x="150"	y="18"	width="64"	height="64" />
			<text class="dir"					x="228"	y="60">Évrocq–Sauvebonne</text>
		</g>
		<g id="ca_4012_d" transform="translate(2560,1728)">
			<rect class="hrbg"					x="0"	y="0"	width="448" height="4" />
			<rect class="bg"					x="0"	y="4"	width="448" height="92" />
			<image xlink:href="../logo/cable.svg" x="8"	y="18"	width="64"	height="64" />
			<image xlink:href="../logo/ca.svg"	x="80"	y="18"	width="64"	height="64" />
			<text class="dir"					x="158"	y="60">Évrocq–Sauvebonne</text>
		</g>
		<!-- Ligne de câble B -->
		<g id="cb_dir" transform="translate(0,1824)">
			<rect class="hrbg"					x="64"	y="0"	width="448" height="4" />
			<rect class="bg"					x="64"	y="4"	width="448" height="92" />
			<image xlink:href="../logo/cable.svg" x="78" y="18"	width="64"	height="64" />
			<image xlink:href="../logo/cb.svg"	x="150"	y="18"	width="64"	height="64" />
			<text class="dir"					x="228"	y="45">Calmeflot</text>
			<text class="dir"					x="228"	y="75">La Dodène</text>
		</g>
		<g id="cb_dir_d" transform="translate(512,1824)">
			<rect class="hrbg"					x="0"	y="0"	width="448" height="4" />
			<rect class="bg"					x="0"	y="4"	width="448" height="92" />
			<image xlink:href="../logo/cable.svg" x="8"	y="18"	width="64"	height="64" />
			<image xlink:href="../logo/cb.svg"	x="80"	y="18"	width="64"	height="64" />
			<text class="dir"					x="158"	y="45">Calmeflot</text>
			<text class="dir"					x="158"	y="75">La Dodène</text>
		</g>
		<g id="cb_4021" transform="translate(1024,1824)">
			<rect class="hrbg"					x="64"	y="0"	width="448" height="4" />
			<rect class="bg"					x="64"	y="4"	width="448" height="92" />
			<image xlink:href="../logo/cable.svg" x="78" y="18"	width="64"	height="64" />
			<image xlink:href="../logo/cb.svg"	x="150"	y="18"	width="64"	height="64" />
			<text class="dir"					x="228"	y="60">Calmeflot</text>
		</g>
		<g id="cb_4021_d" transform="translate(1536,1824)">
			<rect class="hrbg"					x="0"	y="0"	width="448" height="4" />
			<rect class="bg"					x="0"	y="4"	width="448" height="92" />
			<image xlink:href="../logo/cable.svg" x="8"	y="18"	width="64"	height="64" />
			<image xlink:href="../logo/cb.svg"	x="80"	y="18"	width="64"	height="64" />
			<text class="dir"					x="158"	y="60">Calmeflot</text>
		</g>
		<g id="cb_4022" transform="translate(2048,1824)">
			<rect class="hrbg"					x="64"	y="0"	width="448" height="4" />
			<rect class="bg"					x="64"	y="4"	width="448" height="92" />
			<image xlink:href="../logo/cable.svg" x="78" y="18"	width="64"	height="64" />
			<image xlink:href="../logo/cb.svg"	x="150"	y="18"	width="64"	height="64" />
			<text class="dir"					x="228"	y="60">La Dodène</text>
		</g>
		<g id="cb_4022_d" transform="translate(2560,1824)">
			<rect class="hrbg"					x="0"	y="0"	width="448" height="4" />
			<rect class="bg"					x="0"	y="4"	width="448" height="92" />
			<image xlink:href="../logo/cable.svg" x="8"	y="18"	width="64"	height="64" />
			<image xlink:href="../logo/cb.svg"	x="80"	y="18"	width="64"	height="64" />
			<text class="dir"					x="158"	y="60">La Dodène</text>
		</g>
		<!-- Ligne de RER A -->
		<g id="rera_dir" transform="translate(0,2304)">
			<rect class="hrbg"					x="64"	y="0"	width="448" height="4" />
			<rect class="bg"					x="64"	y="4"	width="448" height="92" />
			<image xlink:href="../logo/rer.svg"	x="78"	y="18"	width="64"	height="64" />
			<image xlink:href="../logo/rera.svg" x="150" y="18"	width="64"	height="64" />
			<text class="dir"					x="228"	y="28">Beurrieux–Valdemont</text>
			<text class="dir"					x="228"	y="58">Vaumise</text>
			<text class="dir"					x="228"	y="88">Procyon • Cyséal</text>
		</g>
		<g id="rera_dir_d" transform="translate(512,2304)">
			<rect class="hrbg"					x="0"	y="0"	width="448" height="4" />
			<rect class="bg"					x="0"	y="4"	width="448" height="92" />
			<image xlink:href="../logo/rer.svg"	x="8"	y="18"	width="64"	height="64" />
			<image xlink:href="../logo/rera.svg" x="80"	y="18"	width="64"	height="64" />
			<text class="dir"					x="158"	y="28">Beurrieux–Valdemont</text>
			<text class="dir"					x="158"	y="58">Vaumise</text>
			<text class="dir"					x="158"	y="88">Procyon • Cyséal</text>
		</g>
		
		<g id="rera_dir_2153" transform="translate(1024,2304)">
			<rect class="hrbg"					x="64"	y="0"	width="448" height="4" />
			<rect class="bg"					x="64"	y="4"	width="448" height="92" />
			<image xlink:href="../logo/rer.svg"	x="78"	y="18"	width="64"	height="64" />
			<image xlink:href="../logo/rera.svg" x="150" y="18"	width="64"	height="64" />
			<text class="dir"					x="228"	y="45">Beurrieux–Valdemont</text>
			<text class="dir"					x="228"	y="75">Procyon • Cyséal</text>
		</g>
		<g id="rera_dir_2153_d" transform="translate(1536,2304)">
			<rect class="hrbg"					x="0"	y="0"	width="448" height="4" />
			<rect class="bg"					x="0"	y="4"	width="448" height="92" />
			<image xlink:href="../logo/rer.svg"	x="8"	y="18"	width="64"	height="64" />
			<image xlink:href="../logo/rera.svg" x="80"	y="18"	width="64"	height="64" />
			<text class="dir"					x="158"	y="45">Beurrieux–Valdemont</text>
			<text class="dir"					x="158"	y="75">Procyon • Cyséal</text>
		</g>
		<g id="rera_dir_2154" transform="translate(2048,2304)">
			<rect class="hrbg"					x="64"	y="0"	width="448" height="4" />
			<rect class="bg"					x="64"	y="4"	width="448" height="92" />
			<image xlink:href="../logo/rer.svg"	x="78"	y="18"	width="64"	height="64" />
			<image xlink:href="../logo/rera.svg" x="150" y="18"	width="64"	height="64" />
			<text class="dir"					x="228"	y="45">Vaumise</text>
			<text class="dir"					x="228"	y="75">Procyon • Cyséal</text>
		</g>
		<g id="rera_dir_2154_d" transform="translate(2560,2304)">
			<rect class="hrbg"					x="0"	y="0"	width="448" height="4" />
			<rect class="bg"					x="0"	y="4"	width="448" height="92" />
			<image xlink:href="../logo/rer.svg"	x="8"	y="18"	width="64"	height="64" />
			<image xlink:href="../logo/rera.svg" x="80"	y="18"	width="64"	height="64" />
			<text class="dir"					x="158"	y="45">Vaumise</text>
			<text class="dir"					x="158"	y="75">Procyon • Cyséal</text>
		</g>
		
		<g id="rera_dir_2101" transform="translate(1024,2400)">
			<rect class="hrbg"					x="64"	y="0"	width="448" height="4" />
			<rect class="bg"					x="64"	y="4"	width="448" height="92" />
			<image xlink:href="../logo/rer.svg"	x="78"	y="18"	width="64"	height="64" />
			<image xlink:href="../logo/rera.svg" x="150" y="18"	width="64"	height="64" />
			<text class="dir"					x="228"	y="28">Beurrieux–Valdemont</text>
			<text class="dir"					x="228"	y="58">Vaumise</text>
			<text class="dir"					x="228"	y="88">Cyséal</text>
		</g>
		<g id="rera_dir_2101_d" transform="translate(1536,2400)">
			<rect class="hrbg"					x="0"	y="0"	width="448" height="4" />
			<rect class="bg"					x="0"	y="4"	width="448" height="92" />
			<image xlink:href="../logo/rer.svg"	x="8"	y="18"	width="64"	height="64" />
			<image xlink:href="../logo/rera.svg" x="80"	y="18"	width="64"	height="64" />
			<text class="dir"					x="158"	y="28">Beurrieux–Valdemont</text>
			<text class="dir"					x="158"	y="58">Vaumise</text>
			<text class="dir"					x="158"	y="88">Cyséal</text>
		</g>
		<g id="rera_dir_2102" transform="translate(2048,2400)">
			<rect class="hrbg"					x="64"	y="0"	width="448" height="4" />
			<rect class="bg"					x="64"	y="4"	width="448" height="92" />
			<image xlink:href="../logo/rer.svg"	x="78"	y="18"	width="64"	height="64" />
			<image xlink:href="../logo/rera.svg" x="150" y="18"	width="64"	height="64" />
			<text class="dir"					x="228"	y="28">Beurrieux–Valdemont</text>
			<text class="dir"					x="228"	y="58">Vaumise</text>
			<text class="dir"					x="228"	y="88">Procyon</text>
		</g>
		<g id="rera_dir_2102_d" transform="translate(2560,2400)">
			<rect class="hrbg"					x="0"	y="0"	width="448" height="4" />
			<rect class="bg"					x="0"	y="4"	width="448" height="92" />
			<image xlink:href="../logo/rer.svg"	x="8"	y="18"	width="64"	height="64" />
			<image xlink:href="../logo/rera.svg" x="80"	y="18"	width="64"	height="64" />
			<text class="dir"					x="158"	y="28">Beurrieux–Valdemont</text>
			<text class="dir"					x="158"	y="58">Vaumise</text>
			<text class="dir"					x="158"	y="88">Procyon</text>
		</g>
		
		<g id="rera_2100" transform="translate(0,2496)">
			<rect class="hrbg"					x="64"	y="0"	width="448" height="4" />
			<rect class="bg"					x="64"	y="4"	width="448" height="92" />
			<image xlink:href="../logo/rer.svg"	x="78"	y="18"	width="64"	height="64" />
			<image xlink:href="../logo/rera.svg" x="150" y="18"	width="64"	height="64" />
			<text class="dir"					x="228"	y="60">Procyon • Cyséal</text>
		</g>
		<g id="rera_2100_d" transform="translate(512,2496)">
			<rect class="hrbg"					x="0"	y="0"	width="448" height="4" />
			<rect class="bg"					x="0"	y="4"	width="448" height="92" />
			<image xlink:href="../logo/rer.svg"	x="8"	y="18"	width="64"	height="64" />
			<image xlink:href="../logo/rera.svg" x="80"	y="18"	width="64"	height="64" />
			<text class="dir"					x="158"	y="60">Procyon • Cyséal</text>
		</g>
		<g id="rera_2102" transform="translate(1024,2496)">
			<rect class="hrbg"					x="64"	y="0"	width="448" height="4" />
			<rect class="bg"					x="64"	y="4"	width="448" height="92" />
			<image xlink:href="../logo/rer.svg"	x="78"	y="18"	width="64"	height="64" />
			<image xlink:href="../logo/rera.svg" x="150" y="18"	width="64"	height="64" />
			<text class="dir"					x="228"	y="60">Procyon</text>
		</g>
		<g id="rera_2102_d" transform="translate(1536,2496)">
			<rect class="hrbg"					x="0"	y="0"	width="448" height="4" />
			<rect class="bg"					x="0"	y="4"	width="448" height="92" />
			<image xlink:href="../logo/rer.svg"	x="8"	y="18"	width="64"	height="64" />
			<image xlink:href="../logo/rera.svg" x="80"	y="18"	width="64"	height="64" />
			<text class="dir"					x="158"	y="60">Procyon</text>
		</g>
		<g id="rera_2101" transform="translate(2048,2496)">
			<rect class="hrbg"					x="64"	y="0"	width="448" height="4" />
			<rect class="bg"					x="64"	y="4"	width="448" height="92" />
			<image xlink:href="../logo/rer.svg"	x="78"	y="18"	width="64"	height="64" />
			<image xlink:href="../logo/rera.svg" x="150" y="18"	width="64"	height="64" />
			<text class="dir"					x="228"	y="60">Cyséal</text>
		</g>
		<g id="rera_2101_d" transform="translate(2560,2496)">
			<rect class="hrbg"					x="0"	y="0"	width="448" height="4" />
			<rect class="bg"					x="0"	y="4"	width="448" height="92" />
			<image xlink:href="../logo/rer.svg"	x="8"	y="18"	width="64"	height="64" />
			<image xlink:href="../logo/rera.svg" x="80"	y="18"	width="64"	height="64" />
			<text class="dir"					x="158"	y="60">Cyséal</text>
		</g>
		
		<g id="rera_2150" transform="translate(0,2592)">
			<rect class="hrbg"					x="64"	y="0"	width="448" height="4" />
			<rect class="bg"					x="64"	y="4"	width="448" height="92" />
			<image xlink:href="../logo/rer.svg"	x="78"	y="18"	width="64"	height="64" />
			<image xlink:href="../logo/rera.svg" x="150" y="18"	width="64"	height="64" />
			<text class="dir"					x="228"	y="45">Beurrieux–Valdemont</text>
			<text class="dir"					x="228"	y="75">Vaumise</text>
		</g>
		<g id="rera_2150_d" transform="translate(512,2592)">
			<rect class="hrbg"					x="0"	y="0"	width="448" height="4" />
			<rect class="bg"					x="0"	y="4"	width="448" height="92" />
			<image xlink:href="../logo/rer.svg"	x="8"	y="18"	width="64"	height="64" />
			<image xlink:href="../logo/rera.svg" x="80"	y="18"	width="64"	height="64" />
			<text class="dir"					x="158"	y="45">Beurrieux–Valdemont</text>
			<text class="dir"					x="158"	y="75">Vaumise</text>
		</g>
		<g id="rera_2153" transform="translate(1024,2592)">
			<rect class="hrbg"					x="64"	y="0"	width="448" height="4" />
			<rect class="bg"					x="64"	y="4"	width="448" height="92" />
			<image xlink:href="../logo/rer.svg"	x="78"	y="18"	width="64"	height="64" />
			<image xlink:href="../logo/rera.svg" x="150" y="18"	width="64"	height="64" />
			<text class="dir"					x="228"	y="60">Beurrieux–Valdemont</text>
		</g>
		<g id="rera_2153_d" transform="translate(1536,2592)">
			<rect class="hrbg"					x="0"	y="0"	width="448" height="4" />
			<rect class="bg"					x="0"	y="4"	width="448" height="92" />
			<image xlink:href="../logo/rer.svg"	x="8"	y="18"	width="64"	height="64" />
			<image xlink:href="../logo/rera.svg" x="80"	y="18"	width="64"	height="64" />
			<text class="dir"					x="158"	y="60">Beurrieux–Valdemont</text>
		</g>
		<g id="rera_2154" transform="translate(2048,2592)">
			<rect class="hrbg"					x="64"	y="0"	width="448" height="4" />
			<rect class="bg"					x="64"	y="4"	width="448" height="92" />
			<image xlink:href="../logo/rer.svg"	x="78"	y="18"	width="64"	height="64" />
			<image xlink:href="../logo/rera.svg" x="150" y="18"	width="64"	height="64" />
			<text class="dir"					x="228"	y="60">Vaumise</text>
		</g>
		<g id="rera_2154_d" transform="translate(2560,2592)">
			<rect class="hrbg"					x="0"	y="0"	width="448" height="4" />
			<rect class="bg"					x="0"	y="4"	width="448" height="92" />
			<image xlink:href="../logo/rer.svg"	x="8"	y="18"	width="64"	height="64" />
			<image xlink:href="../logo/rera.svg" x="80"	y="18"	width="64"	height="64" />
			<text class="dir"					x="158"	y="60">Vaumise</text>
		</g>
		
		<!-- Accès aux quais multi-lignes -->
		<g id="m1_2_3" transform="translate(0,2880)">
			<rect class="hrbg"					x="64"	y="0"	width="448" height="4" />
			<rect class="bg"					x="64"	y="4"	width="448" height="92" />
			<image xlink:href="../logo/m.svg"	x="78"	y="18"	width="64"	height="64" />
			<image xlink:href="../logo/1.svg"	x="150" y="18"	width="64"	height="64" />
			<image xlink:href="../logo/2.svg"	x="222" y="18"	width="64"	height="64" />
			<image xlink:href="../logo/3.svg"	x="294" y="18"	width="64"	height="64" />
		</g>
		<g id="m1_2_3_d" transform="translate(512,2880)">
			<rect class="hrbg"					x="0"	y="0"	width="448" height="4" />
			<rect class="bg"					x="0"	y="4"	width="448" height="92" />
			<image xlink:href="../logo/m.svg"	x="8"	y="18"	width="64"	height="64" />
			<image xlink:href="../logo/1.svg" 	x="80"	y="18"	width="64"	height="64" />
			<image xlink:href="../logo/2.svg" 	x="152"	y="18"	width="64"	height="64" />
			<image xlink:href="../logo/3.svg" 	x="224"	y="18"	width="64"	height="64" />
		</g>
		
		<g id="m1_2_4" transform="translate(0,2976)">
			<rect class="hrbg"					x="64"	y="0"	width="448" height="4" />
			<rect class="bg"					x="64"	y="4"	width="448" height="92" />
			<image xlink:href="../logo/m.svg"	x="78"	y="18"	width="64"	height="64" />
			<image xlink:href="../logo/1.svg"	x="150" y="18"	width="64"	height="64" />
			<image xlink:href="../logo/2.svg"	x="222" y="18"	width="64"	height="64" />
			<image xlink:href="../logo/4.svg"	x="294" y="18"	width="64"	height="64" />
		</g>
		<g id="m1_2_4_d" transform="translate(512,2976)">
			<rect class="hrbg"					x="0"	y="0"	width="448" height="4" />
			<rect class="bg"					x="0"	y="4"	width="448" height="92" />
			<image xlink:href="../logo/m.svg"	x="8"	y="18"	width="64"	height="64" />
			<image xlink:href="../logo/1.svg" 	x="80"	y="18"	width="64"	height="64" />
			<image xlink:href="../logo/2.svg" 	x="152"	y="18"	width="64"	height="64" />
			<image xlink:href="../logo/4.svg" 	x="224"	y="18"	width="64"	height="64" />
		</g>
		
		<g id="m1_3_4" transform="translate(0,3072)">
			<rect class="hrbg"					x="64"	y="0"	width="448" height="4" />
			<rect class="bg"					x="64"	y="4"	width="448" height="92" />
			<image xlink:href="../logo/m.svg"	x="78"	y="18"	width="64"	height="64" />
			<image xlink:href="../logo/1.svg"	x="150" y="18"	width="64"	height="64" />
			<image xlink:href="../logo/3.svg"	x="222" y="18"	width="64"	height="64" />
			<image xlink:href="../logo/4.svg"	x="294" y="18"	width="64"	height="64" />
		</g>
		<g id="m1_3_4_d" transform="translate(512,3072)">
			<rect class="hrbg"					x="0"	y="0"	width="448" height="4" />
			<rect class="bg"					x="0"	y="4"	width="448" height="92" />
			<image xlink:href="../logo/m.svg"	x="8"	y="18"	width="64"	height="64" />
			<image xlink:href="../logo/1.svg" 	x="80"	y="18"	width="64"	height="64" />
			<image xlink:href="../logo/3.svg" 	x="152"	y="18"	width="64"	height="64" />
			<image xlink:href="../logo/4.svg" 	x="224"	y="18"	width="64"	height="64" />
		</g>
		
		<g id="m2_3_4" transform="translate(0,3168)">
			<rect class="hrbg"					x="64"	y="0"	width="448" height="4" />
			<rect class="bg"					x="64"	y="4"	width="448" height="92" />
			<image xlink:href="../logo/m.svg"	x="78"	y="18"	width="64"	height="64" />
			<image xlink:href="../logo/2.svg"	x="150" y="18"	width="64"	height="64" />
			<image xlink:href="../logo/3.svg"	x="222" y="18"	width="64"	height="64" />
			<image xlink:href="../logo/4.svg"	x="294" y="18"	width="64"	height="64" />
		</g>
		<g id="m2_3_4_d" transform="translate(512,3168)">
			<rect class="hrbg"					x="0"	y="0"	width="448" height="4" />
			<rect class="bg"					x="0"	y="4"	width="448" height="92" />
			<image xlink:href="../logo/m.svg"	x="8"	y="18"	width="64"	height="64" />
			<image xlink:href="../logo/2.svg" 	x="80"	y="18"	width="64"	height="64" />
			<image xlink:href="../logo/3.svg" 	x="152"	y="18"	width="64"	height="64" />
			<image xlink:href="../logo/4.svg" 	x="224"	y="18"	width="64"	height="64" />
		</g>
		
		<g id="m1_2_3_4" transform="translate(0,3264)">
			<rect class="hrbg"					x="64"	y="0"	width="448" height="4" />
			<rect class="bg"					x="64"	y="4"	width="448" height="92" />
			<image xlink:href="../logo/m.svg"	x="78"	y="18"	width="64"	height="64" />
			<image xlink:href="../logo/1.svg"	x="150" y="18"	width="64"	height="64" />
			<image xlink:href="../logo/2.svg"	x="222" y="18"	width="64"	height="64" />
			<image xlink:href="../logo/3.svg"	x="294" y="18"	width="64"	height="64" />
			<image xlink:href="../logo/4.svg"	x="366" y="18"	width="64"	height="64" />
		</g>
		<g id="m1_2_3_4_d" transform="translate(512,3264)">
			<rect class="hrbg"					x="0"	y="0"	width="448" height="4" />
			<rect class="bg"					x="0"	y="4"	width="448" height="92" />
			<image xlink:href="../logo/m.svg"	x="8"	y="18"	width="64"	height="64" />
			<image xlink:href="../logo/1.svg" 	x="80"	y="18"	width="64"	height="64" />
			<image xlink:href="../logo/2.svg" 	x="152"	y="18"	width="64"	height="64" />
			<image xlink:href="../logo/3.svg" 	x="224"	y="18"	width="64"	height="64" />
			<image xlink:href="../logo/4.svg" 	x="296"	y="18"	width="64"	height="64" />
		</g>
		
		<g id="m1_5b_6" transform="translate(0,3360)">
			<rect class="hrbg"					x="64"	y="0"	width="448" height="4" />
			<rect class="bg"					x="64"	y="4"	width="448" height="92" />
			<image xlink:href="../logo/m.svg"	x="78"	y="18"	width="64"	height="64" />
			<image xlink:href="../logo/1.svg"	x="150" y="18"	width="64"	height="64" />
			<image xlink:href="../logo/5b.svg"	x="222" y="18"	width="64"	height="64" />
			<image xlink:href="../logo/6.svg"	x="294" y="18"	width="64"	height="64" />
		</g>
		<g id="m1_5b_6_d" transform="translate(512,3360)">
			<rect class="hrbg"					x="0"	y="0"	width="448" height="4" />
			<rect class="bg"					x="0"	y="4"	width="448" height="92" />
			<image xlink:href="../logo/m.svg"	x="8"	y="18"	width="64"	height="64" />
			<image xlink:href="../logo/1.svg" 	x="80"	y="18"	width="64"	height="64" />
			<image xlink:href="../logo/5b.svg" 	x="152"	y="18"	width="64"	height="64" />
			<image xlink:href="../logo/6.svg" 	x="224"	y="18"	width="64"	height="64" />
		</g>
		
		<g id="rera_m1_5a" transform="translate(0,3456)">
			<rect class="hrbg"					x="64"	y="0"	width="448" height="4" />
			<rect class="bg"					x="64"	y="4"	width="448" height="92" />
			<image xlink:href="../logo/rer.svg"	x="78"	y="18"	width="64"	height="64" />
			<image xlink:href="../logo/rera.svg" x="150" y="18"	width="64"	height="64" />
			<image xlink:href="../logo/m.svg"	x="254" y="18"	width="64"	height="64" />
			<image xlink:href="../logo/1.svg"	x="326" y="18"	width="64"	height="64" />
			<image xlink:href="../logo/5a.svg"	x="398" y="18"	width="64"	height="64" />
		</g>
		<g id="rera_m1_5a_d" transform="translate(512,3456)">
			<rect class="hrbg"					x="0"	y="0"	width="448" height="4" />
			<rect class="bg"					x="0"	y="4"	width="448" height="92" />
			<image xlink:href="../logo/rer.svg"	x="8"	y="18"	width="64"	height="64" />
			<image xlink:href="../logo/rera.svg" x="80"	y="18"	width="64"	height="64" />
			<image xlink:href="../logo/m.svg" 	x="184"	y="18"	width="64"	height="64" />
			<image xlink:href="../logo/1.svg" 	x="256"	y="18"	width="64"	height="64" />
			<image xlink:href="../logo/5a.svg" 	x="328"	y="18"	width="64"	height="64" />
		</g>
		
		<g id="rera_m3_5b" transform="translate(0,3552)">
			<rect class="hrbg"					x="64"	y="0"	width="448" height="4" />
			<rect class="bg"					x="64"	y="4"	width="448" height="92" />
			<image xlink:href="../logo/rer.svg"	x="78"	y="18"	width="64"	height="64" />
			<image xlink:href="../logo/rera.svg" x="150" y="18"	width="64"	height="64" />
			<image xlink:href="../logo/m.svg"	x="254" y="18"	width="64"	height="64" />
			<image xlink:href="../logo/3.svg"	x="326" y="18"	width="64"	height="64" />
			<image xlink:href="../logo/5b.svg"	x="398" y="18"	width="64"	height="64" />
		</g>
		<g id="rera_m3_5b_d" transform="translate(512,3552)">
			<rect class="hrbg"					x="0"	y="0"	width="448" height="4" />
			<rect class="bg"					x="0"	y="4"	width="448" height="92" />
			<image xlink:href="../logo/rer.svg"	x="8"	y="18"	width="64"	height="64" />
			<image xlink:href="../logo/rera.svg" x="80"	y="18"	width="64"	height="64" />
			<image xlink:href="../logo/m.svg" 	x="184"	y="18"	width="64"	height="64" />
			<image xlink:href="../logo/3.svg" 	x="256"	y="18"	width="64"	height="64" />
			<image xlink:href="../logo/5b.svg" 	x="328"	y="18"	width="64"	height="64" />
		</g>
	</g>
	<g id="fleches">
		<g class="fleche" id="fleche_h_g" transform="translate(0,0)">
			<rect class="hrbg"		x="0"	y="0"	width="64" height="4" />
			<rect class="bg"		x="0"	y="4"	width="64" height="92" />
			<g transform="rotate(90,36,48)">
				<line class="fMain"	x1="16"		y1="48"		x2="63" y2="48" />
				<line class="fSide" x1="10.85"	y1="51.15"	x2="37"	y2="25" />
				<line class="fSide" x1="10.85"	y1="44.85"	x2="37"	y2="71" />
			</g>
		</g>
		<g class="fleche" id="fleche_h_d" transform="translate(512,0)">
			<rect class="hrbg"		x="448"		y="0"	width="64" height="4" />
			<rect class="bg"		x="448"		y="4"	width="64" height="92" />
			<g transform="rotate(-90,476,48)">
				<line class="fMain"	x1="496"	y1="48"		x2="449" y2="48" />
				<line class="fSide" x1="501.15"	y1="51.15"	x2="475" y2="25" />
				<line class="fSide" x1="501.15"	y1="44.85"	x2="475" y2="71" />
			</g>
		</g>
		<g class="fleche" id="fleche_hg_g" transform="translate(0,96)">
			<rect class="hrbg"		x="0"	y="0"	width="64" height="4" />
			<rect class="bg"		x="0"	y="4"	width="64" height="92" />
			<g transform="rotate(45,36,48)">
				<line class="fMain"	x1="16"		y1="48"		x2="63" y2="48" />
				<line class="fSide" x1="10.85"	y1="51.15"	x2="37"	y2="25" />
				<line class="fSide" x1="10.85"	y1="44.85"	x2="37"	y2="71" />
			</g>
		</g>
		<g class="fleche" id="fleche_hd_d" transform="translate(512,96)">
			<rect class="hrbg"		x="448"		y="0"	width="64" height="4" />
			<rect class="bg"		x="448"		y="4"	width="64" height="92" />
			<g transform="rotate(-45,476,48)">
				<line class="fMain"	x1="496"	y1="48"		x2="449" y2="48" />
				<line class="fSide" x1="501.15"	y1="51.15"	x2="475" y2="25" />
				<line class="fSide" x1="501.15"	y1="44.85"	x2="475" y2="71" />
			</g>
		</g>
		<g class="fleche" id="fleche_g_g" transform="translate(0,192)">
			<rect class="hrbg"	x="0"		y="0"	width="64" height="4" />
			<rect class="bg"	x="0"		y="4"	width="64" height="92" />
			<line class="fMain"	x1="16"		y1="48"		x2="63" y2="48" />
			<line class="fSide" x1="10.85"	y1="51.15"	x2="37"	y2="25" />
			<line class="fSide" x1="10.85"	y1="44.85"	x2="37"	y2="71" />
		</g>
		<g class="fleche" id="fleche_d_d" transform="translate(512,192)">
			<rect class="hrbg"	x="448"		y="0"	width="64" height="4" />
			<rect class="bg"	x="448"		y="4"	width="64" height="92" />
			<line class="fMain"	x1="496"	y1="48"		x2="449" y2="48" />
			<line class="fSide" x1="501.15"	y1="51.15"	x2="475" y2="25" />
			<line class="fSide" x1="501.15"	y1="44.85"	x2="475" y2="71" />
		</g>
		<g class="fleche" id="fleche_bg_g" transform="translate(0,288)">
			<rect class="hrbg"	x="0"		y="0"	width="64" height="4" />
			<rect class="bg"	x="0"		y="4"	width="64" height="92" />
			<g transform="rotate(-45,36,48)">
				<line class="fMain"	x1="16"		y1="48"		x2="63" y2="48" />
				<line class="fSide" x1="10.85"	y1="51.15"	x2="37"	y2="25" />
				<line class="fSide" x1="10.85"	y1="44.85"	x2="37"	y2="71" />
			</g>
		</g>
		<g class="fleche" id="fleche_bd_d" transform="translate(512,288)">
			<rect class="hrbg"		x="448"		y="0"	width="64" height="4" />
			<rect class="bg"		x="448"		y="4"	width="64" height="92" />
			<g transform="rotate(45,476,48)">
				<line class="fMain"	x1="496"	y1="48"		x2="449" y2="48" />
				<line class="fSide" x1="501.15"	y1="51.15"	x2="475" y2="25" />
				<line class="fSide" x1="501.15"	y1="44.85"	x2="475" y2="71" />
			</g>
		</g>
		<g class="fleche" id="fleche_b_g" transform="translate(0,384)">
			<rect class="hrbg"		x="0"		y="0"	width="64" height="4" />
			<rect class="bg"		x="0"		y="4"	width="64" height="92" />
			<g transform="rotate(-90,36,48)">
				<line class="fMain"	x1="16"		y1="48"		x2="63" y2="48" />
				<line class="fSide" x1="10.85"	y1="51.15"	x2="37"	y2="25" />
				<line class="fSide" x1="10.85"	y1="44.85"	x2="37"	y2="71" />
			</g>
		</g>
		<g class="fleche" id="fleche_b_d" transform="translate(512,384)">
			<rect class="hrbg"		x="448"		y="0"	width="64" height="4" />
			<rect class="bg"		x="448"		y="4"	width="64" height="92" />
			<g transform="rotate(90,476,48)">
				<line class="fMain"	x1="496"	y1="48"		x2="449" y2="48" />
				<line class="fSide" x1="501.15"	y1="51.15"	x2="475" y2="25" />
				<line class="fSide" x1="501.15"	y1="44.85"	x2="475" y2="71" />
			</g>
		</g>
		<g class="fleche" id="fleche_r_g" transform="translate(0,480)">
			<rect class="hrbg"		x="0"		y="0"	width="64" height="4" />
			<rect class="bg"		x="0"		y="4"	width="64" height="92" />
		</g>
		<g class="fleche" id="fleche_r_d" transform="translate(512,480)">
			<rect class="hrbg"		x="448"		y="0"	width="64" height="4" />
			<rect class="bg"		x="448"		y="4"	width="64" height="92" />
		</g>
		<g class="fleche" id="fleche_tvq_g" transform="translate(0,576)">
			<rect class="bg"		x="0"		y="0"	width="64" height="96" />
		</g>
		<g class="fleche" id="fleche_tvq_d" transform="translate(512,576)">
			<rect class="bg"		x="448"		y="0"	width="64" height="96" />
		</g>
	</g>
</svg>
