<?xml version="1.0" encoding="UTF-8" standalone="no"?>
<svg
	xmlns="http://www.w3.org/2000/svg"
	version="1.1"
	width="40"
	height="40"
	viewBox="-4 -8 40 40">
	<style type="text/css"> <![CDATA[
		.b{
			fill:none;
			stroke-width:8;
			stroke:#808080;
			stroke-dasharray: 15 6 3 0;
		}
		.m1{ fill:#ffcd00; }
		.m2{ fill:#003ca6; }
		.m3{ fill:#6ec4e8; }
		.m4{ fill:#cf009e; }
		.m5a{ fill:#ff7e2e; }
		.m5b{ fill:#ff7e2e; }
		.m6{ fill:#60bb39; }
		.m7{ fill:#fa9aba; }
		.m7b{ fill:#6eca97; }
		.m8{ fill:#e19bdf; }
		.m8b{ fill:#345663; }
		.m9{ fill:#b6bd00; }
		.m10{ fill:#c9910d; }
		.m11{ fill:#704b1c; }
		.m12{ fill:#007852; }
		.A{ fill:#e2231a; }
	]]> </style>
	<circle r="16" cx="16" cy="12" class="b" />
	<circle r="16" cx="16" cy="12" class="m10" />
</svg>