<?xml version="1.0" encoding="UTF-8" standalone="no"?>
<svg
	xmlns="http://www.w3.org/2000/svg"
	version="1.1"
	width="40"
	height="40"
	viewBox="-4 -8 40 40">
	<style type="text/css"> <![CDATA[
		.bg{
			fill:#ffffff;
			stroke-width:2;
			stroke:#000000;
		}
		.fleche{
			fill-opacity:0;
			stroke:#ffffff;
			stroke-width:4;
			stroke-linejoin:round;
		}
		.m1{ fill:#ffcd00; }
		.m2{ fill:#003ca6; }
		.m3{ fill:#6ec4e8; }
		.m4{ fill:#cf009e; }
		.m5a{ fill:#ff7e2e; }
		.m5b{ fill:#ff7e2e; }
		.m6{ fill:#60bb39; }
		.m7{ fill:#fa9aba; }
		.m7b{ fill:#6eca97; }
		.m8{ fill:#e19bdf; }
		.m8b{ fill:#345663; }
		.A{ fill:#e2231a; }
	]]> </style>
	<circle r="16" cx="16" cy="12" class="m7" />
	<path class="fleche" d="M 16 2 V 20 L 26 13 M 16 20 L 6 13" />
</svg>