<?xml version="1.0" encoding="UTF-8" standalone="no"?>
<svg
	xmlns="http://www.w3.org/2000/svg"
	version="1.1"
	width="80"
	height="60"
	viewBox="0 0 80 60">
	<style type="text/css"> <![CDATA[
		.bg{
			fill:#ffffff;
			stroke-width:2;
			stroke:#000000;
		}
		.bg2{fill:#ffffff;stroke:none;}
		.m1{ fill:#ffcd00; }
		.m2{ fill:#003ca6; }
		.m3{ fill:#6ec4e8; }
		.m4{ fill:#cf009e; }
		.m5a{ fill:#ff7e2e; }
		.m5b{ fill:#ff7e2e; }
		.m6{ fill:#60bb39; }
		.m7{ fill:#fa9aba; }
		.m7b{ fill:#6eca97; }
		.m8{ fill:#e19bdf; }
		.m8b{ fill:#345663; }
		.m9{ fill:#b6bd00; }
		.m10{ fill:#c9910d; }
		.m11{ fill:#704b1c; }
		.m12{ fill:#007852; }
		.A{ fill:#e2231a; }
	]]> </style>
	<g class="bg">
		<circle r="19" cx="30" cy="30" />
		<rect x="18" y="18" width="52" height="24" rx="12" ry="12" />
	</g>
	<circle r="18" cx="30" cy="30" class="bg2" />
	<circle r="12" cx="30" cy="30" class="A" />
	<circle r="8" cx="55" cy="30" class="m12" />
</svg>