<?xml version="1.0" encoding="UTF-8" standalone="no"?>
<svg
	xmlns="http://www.w3.org/2000/svg"
	version="1.1"
	width="40"
	height="12"
	viewBox="-20 -6 40 12">
	<style type="text/css"> <![CDATA[
		.bg{
			fill:#ffffff;
			stroke-width:2;
			stroke:#000000;
		}
		.c{
			stroke-width:6;
			stroke:#ffffff;
		}
		.cS{
			stroke-width:2;
			stroke:#000000;
		}
		.x{fill-opacity:0;}
		.m1{ fill:#ffcd00; }
		.m2{ fill:#003ca6; }
		.m3{ fill:#6ec4e8; }
		.m4{ fill:#cf009e; }
		.m5a{ fill:#ff7e2e; }
		.m5b{ fill:#ff7e2e; }
		.m6{ fill:#60bb39; }
		.m7{ fill:#fa9aba; }
		.m7b{ fill:#6eca97; }
		.m8{ fill:#e19bdf; }
		.m8b{ fill:#345663; }
		.A{ fill:#e2231a; }
	]]> </style>
	
	<path d="M -15 0 H 15" class="c" />
</svg>