<?xml version="1.0" encoding="UTF-8" standalone="no"?>
<svg
	xmlns="http://www.w3.org/2000/svg"
	version="1.1"
	width="20"
	height="20"
	viewBox="0 0 20 20">
	<style type="text/css"> <![CDATA[
		.bg{
			fill:#ffffff;
			stroke-width:2;
			stroke:#000000;
		}
		.wh{
			fill:#ffffff;
		}
		.fleche{
			fill-opacity:0;
			stroke:#c39108;
			stroke-width:2;
			stroke-linejoin:round;
		}
		.x{fill-opacity:0;}
		.m1{ fill:#ffcd00; }
		.m2{ fill:#003ca6; }
		.m3{ fill:#6ec4e8; }
		.m4{ fill:#cf009e; }
		.m5a{ fill:#ff7e2e; }
		.m5b{ fill:#ff7e2e; }
		.m6{ fill:#60bb39; }
		.m7{ fill:#fa9aba; }
		.m7b{ fill:#6eca97; }
		.m8{ fill:#e19bdf; }
		.m8b{ fill:#345663; }
		.A{ fill:#e2231a; }
		.ca{ fill:#4b7e99; }
		.cb{ fill:#c39108; }
	]]> </style>
	
	<circle r="8" cx="10" cy="10" class="cb" />
	<circle r="6" cx="10" cy="10" class="wh" />
	<path class="fleche" d="M 10 6 V 14 L 14 11 M 10 14 L 6 11" />
	<circle class="cb" r="1" cx="10" cy="6" />
	<circle class="cb" r="1" cx="6" cy="11" />
	<circle class="cb" r="1" cx="14" cy="11" />
</svg>